0: 1 1 8 2 17, zy; 1 2 1 9 2 16 2 9, zy; 1 1 8 2 16 2 9 1 2 1 9 2 16 2 8 1 1 15 2 12 2 12 2 12 2 15, zy
1: 1 1 8 2 17, zy; 1 2 1 9 2 16 2 9, zy; 1 1 6 1 1 15 2 9 1 2 1 9 1 1 17 2 9 1 2 1 8 1 2 1 9 2 17 1 1 9 1 2 1 9 2 15, zy
2: 1 1 8 2 17, zy; 1 2 1 9 2 16 2 9, zy; 1 1 5 1 2 1 12 1 2 1 5 1 1 13 2 13 1 1 6 1 1 16 1 1 7 1 2 1 11 2 14 2 11 1 2 1 7 1 1 16 1 1 6 1 1 13 2 13, zy
3: 1 1 10 2 21, zy; 1 2 1 11 2 20 2 11, zy; 1 1 4 1 1 15 2 15 1 2 1 7 1 1 17 2 15 1 1 6 1 1 18 1 1 6 1 1 15 2 17 1 1 7 1 2 1 15 2 15, zy
4: 1 1 12 2 25, zy; 1 2 1 13 2 24 2 13, zy; 1 1 4 1 1 17 2 20 2 17 1 1 5 1 2 1 21 2 14 2 24 2 14 2 21 1 2 1 5 1 1 17 2 20 2 17, zy
5: 1 1 12 2 25, zy; 1 2 1 13 2 24 2 13, zy; 1 1 10 1 1 23 2 13 1 2 1 13 1 1 25 2 13 1 2 1 12 1 2 1 13 2 25 1 1 13 1 2 1 13 2 23, zy
6: 1 1 12 2 25, zy; 1 2 1 13 2 24 2 13, zy; 1 1 4 1 1 17 2 19 1 2 1 7 1 1 19 2 19 1 1 8 1 1 22 1 1 8 1 1 19 2 19 1 1 7 1 2 1 19 2 17, zy
7: 1 1 12 2 25, zy; 1 2 1 13 2 24 2 13, zy; 1 1 4 1 1 17 2 20 2 16 2 23 1 1 11 1 2 1 15 2 22 2 14 2 24 2 14 2 22 2 15 1 2 1 11 1 1 23 2 16 2 20 2 17, zy
8: 1 1 12 2 25, zy; 1 2 1 13 2 24 2 13, zy; 1 1 7 1 2 1 18 1 2 1 7 1 1 19 2 19 1 1 8 1 1 22 1 1 9 1 2 1 17 2 20 2 17 1 2 1 9 1 1 22 1 1 8 1 1 19 2 19, zy
9: 1 1 14 2 29, zy; 1 2 1 15 2 28 2 15, zy; 1 1 14 2 28 2 15 1 2 1 15 2 28 2 14 1 1 27 2 16 2 28 2 16 2 27, zy
10: 1 1 14 2 29, zy; 1 2 1 15 2 28 2 15, zy; 1 1 14 2 28 2 15 1 2 1 15 2 28 2 14 1 1 27 2 18 2 24 2 18 2 27, zy
11: 1 1 14 2 29, zy; 1 2 1 15 2 28 2 15, zy; 1 1 8 1 1 21 2 23 1 1 9 1 2 1 20 1 2 1 9 1 1 23 2 21 1 1 8 1 1 24 1 1 9 1 2 1 21 2 22 2 21 1 2 1 9 1 1 24, zy
12: 1 1 7 1 2 1 22 1 2 1 7 1 1 22 1 1 8 1 1 22, zy; 1 2 1 14, zy; 1 1 13 1 2 1 13 1 1 26, zy
13: 1 1 8 1 1 17 2 8 1 1 17 2 8 2 17 1 1 8 2 17, zy; 1 2 1 9 2 16 2 9, zy; 1 1 8 2 16 2 9 1 2 1 9 2 16 2 8 1 1 15 2 10 2 16 2 10 2 15, zy
14: 1 1 8 1 1 19 2 10 1 1 19 2 12 2 19 1 1 10 2 19, zy; 2 10 2 20, yx; 1 1 4 1 1 15 2 15 1 1 5 1 2 1 17 2 12 2 17 1 2 1 5 1 1 15 2 15, zy
15: 1 1 14 1 1 31 2 16 1 1 31 2 18 2 31 1 1 16 2 31, zy; 2 24, yx; 1 1 15 1 2 1 19 2 28 2 19 1 2 1 15 1 1 31 2 17 1 2 1 17 2 31, zy
16: 1 1 14 1 1 31 2 16 1 1 31 2 18 2 31 1 1 16 2 31, zy; 2 24, yx; 1 1 7 1 2 1 27 2 20 2 27 1 2 1 7 1 1 23 2 25 1 1 8 1 1 25 2 23, zy
17: 1 1 14 1 1 31 2 16 1 1 31 2 18 2 31 1 1 16 2 31, zy; 2 24, yx; 1 1 7 1 2 1 27 2 20 2 27 1 2 1 7 1 1 23 2 25 1 2 1 9 1 1 26 1 1 9 1 2 1 25 2 23, zy
18: 1 1 14 2 26 2 15 1 2 1 15 2 26 2 14 1 1 27 2 16 2 24 2 16 2 27, zy; 1 1 12 2 27 1 1 12 2 28 2 14 2 26 2 16 2 25, zy; 1 1 6 1 1 21 2 20 2 21 1 1 7 1 2 1 23 2 16 2 26 2 16 2 23 1 2 1 7 1 1 21 2 20 2 21, zy
19: 1 1 16 2 32 2 17 1 2 1 17 2 32 2 16 1 1 31 2 20 2 28 2 20 2 31, zy; 2 16 2 32 2 18 2 32, yx; 1 1 6 1 1 23 2 26 2 23 1 1 7 1 2 1 27 2 20 2 30 2 20 2 27 1 2 1 7 1 1 23 2 26 2 23, zy
20: 1 1 7 1 2 1 19 2 16 2 19 1 2 1 7 1 1 20 1 1 8 1 1 23 2 10 1 1 22 1 1 10 2 23 1 1 8 1 1 20, zy; 1 2 1 13 2 22 2 13, zy; 1 1 5 1 2 1 21 2 12 1 1 24 1 1 12 2 21 1 2 1 5 1 1 17 2 18 2 17, zy
