0: 1 1 6 2 17, zy; 1 2 1 11 2 12 2 11, zy; 1 1 4 2 17 1 1 6 1 1 17 2 4 1 1 13 2 10 2 13, zy
1: 1 1 8 2 21, zy; 1 2 1 13 2 16 2 13, zy; 1 1 7 1 2 1 19 2 10 2 18 2 12 2 18 2 10 2 19 1 2 1 7 1 1 19 2 12 2 16 2 13 1 2 1 13 2 16 2 12 2 19, zy
2: 1 1 8 2 21, zy; 1 2 1 13 2 16 2 13, zy; 1 1 6 1 1 17 2 13 1 2 1 13 2 16 2 12 2 18 2 12 2 16 2 13 1 2 1 13 2 17 1 1 6 1 1 20 1 1 7 1 2 1 19 2 10 2 19 1 2 1 7 1 1 20 1 1 7 1 2 1 19 2 10 2 19 1 2 1 7 1 1 20 1 1 7 1 2 1 19 2 10 2 19 1 2 1 7 1 1 20 1 1 7 1 2 1 19 2 10 2 19 1 2 1 7 1 1 20, zy
3: 1 1 10 2 25, zy; 1 2 1 15 2 20 2 15, zy; 1 1 9 1 2 1 21 2 14 2 20 2 16 2 20 2 14 2 21 1 2 1 9 1 1 23 2 14 2 20 2 15 1 2 1 15 2 20 2 14 2 23, zy
4: 1 1 10 2 25, zy; 1 2 1 15 2 20 2 15, zy; 1 1 12 2 22 2 14 2 20 2 16 2 20 2 14 2 22 2 12 1 1 25 2 12 2 22 2 14 2 20 2 16 2 20 2 14 2 22 2 12 2 25 1 1 12 2 22 2 14 2 20 2 16 2 20 2 14 2 22 2 12 1 1 25 2 12 2 22 2 14 2 20 2 16 2 20 2 14 2 22 2 12 2 25 1 1 12 2 22 2 14 2 20 2 16 2 20 2 14 2 22 2 12 1 1 25 2 12 2 22 2 14 2 20 2 16 2 20 2 14 2 22 2 12 2 25 1 1 12 2 22 2 14 2 20 2 16 2 20 2 14 2 22 2 13 1 2 1 16 1 2 1 14 1 2 1 16 1 2 1 13 2 22 2 14 2 20 2 16 2 20 2 14 2 22 2 12 1 1 25 2 12 2 22 2 14 2 20 2 16 2 20 2 14 2 22 2 12 2 25, zy
5: 1 1 48 2 99, zy; 1 2 1 51 2 96 2 51, zy; 1 1 8 1 1 58 1 2 1 45 1 1 97 2 49 1 2 1 54 1 2 1 47 1 1 97 2 50 2 97 1 1 47 1 2 1 54 1 2 1 49 2 97 1 1 45 1 2 1 58 1 1 8 1 1 60, zy
6: 1 1 50 2 103, zy; 1 2 1 53 2 100 2 53, zy; 1 1 28 1 1 81 2 72 2 81 1 1 29 1 2 1 77 2 74 2 80 2 74 2 77 1 2 1 29 1 1 81 2 72 2 81, zy
7: 1 1 50 2 103, zy; 1 2 1 53 2 100 2 53, zy; 1 1 34 1 1 87 2 66 2 87 1 1 35 1 2 1 71 2 80 2 74 2 80 2 71 1 2 1 35 1 1 87 2 66 2 87, zy
8: 1 1 50 2 103, zy; 1 2 1 53 2 100 2 53, zy; 1 1 6 1 1 58 1 1 6 1 1 60 1 2 1 47 1 1 101 2 51 1 2 1 56 1 2 1 49 1 1 101 2 52 2 101 1 1 49 1 2 1 56 1 2 1 51 2 101 1 1 47 1 2 1 60, zy
9: 1 1 52 2 107, zy; 1 2 1 55 2 104 2 55, zy; 1 1 30 1 1 85 2 74 2 85 1 1 31 1 2 1 79 2 78 2 82 2 78 2 79 1 2 1 31 1 1 85 2 74 2 85, zy
10: 1 1 52 2 107, zy; 1 2 1 55 2 104 2 55, zy; 1 1 34 1 1 89 2 70 2 89 1 1 35 1 2 1 75 2 82 2 78 2 82 2 75 1 2 1 35 1 1 89 2 70 2 89, zy
11: 1 1 52 2 107, zy; 1 2 1 55 2 104 2 55, zy; 1 1 49 1 2 1 60 1 2 1 51 2 107 1 1 51 1 2 1 60 1 2 1 50 1 2 1 60 1 2 1 51 1 1 107 2 51 1 2 1 60 1 2 1 49 1 1 103 2 56 2 103, zy
12: 1 1 54 2 111, zy; 1 2 1 57 2 108 2 57, zy; 1 1 26 1 1 83 2 82 2 83 1 1 27 1 2 1 87 2 76 2 90 2 76 2 87 1 2 1 27 1 1 83 2 82 2 83, zy
13: 1 1 54 2 111, zy; 1 2 1 57 2 108 2 57, zy; 1 1 34 1 1 91 2 74 2 91 1 1 35 1 2 1 79 2 84 2 82 2 84 2 79 1 2 1 35 1 1 91 2 74 2 91, zy
14: 1 1 54 2 111, zy; 1 2 1 57 2 108 2 57, zy; 1 1 36 1 1 93 2 72 2 93 1 1 37 1 2 1 77 2 86 2 80 2 86 2 77 1 2 1 37 1 1 93 2 72 2 93, zy
15: 1 1 54 2 111, zy; 1 2 1 57 2 108 2 57, zy; 1 1 51 1 2 1 64 1 2 1 50 1 2 1 64 1 2 1 51 1 1 109 2 55 1 2 1 60 1 2 1 53 1 1 109 2 56 2 109 1 1 53 1 2 1 60 1 2 1 55 2 109, zy
16: 1 1 54 2 111, zy; 1 2 1 57 2 108 2 57, zy; 1 1 6 1 1 62 1 1 6 1 1 64 1 2 1 51 1 1 109 2 55 1 2 1 60 1 2 1 53 1 1 109 2 56 2 109 1 1 53 1 2 1 60 1 2 1 55 2 109 1 1 51 1 2 1 64, zy
17: 1 1 54 2 111, zy; 1 2 1 57 2 108 2 57, zy; 1 1 28 1 1 85 2 80 2 85 1 1 28 1 1 85 2 80 2 85 1 1 28 1 1 85 2 80 2 85 1 1 29 1 2 1 85 2 78 2 88 2 78 2 85 1 2 1 30 1 2 1 85 2 78 2 88 2 78 2 85 1 2 1 29 1 1 85 2 80 2 85, zy
18: 1 1 56 2 115, zy; 1 2 1 59 2 112 2 59, zy; 1 1 58 2 112 2 59 1 2 1 59 2 112 2 58 1 1 115 2 58 2 112 2 58 2 115, zy
19: 1 1 56 2 115, zy; 1 2 1 59 2 112 2 59, zy; 1 1 28 1 1 87 2 84 2 87 1 1 29 1 2 1 89 2 80 2 92 2 80 2 89 1 2 1 29 1 1 87 2 84 2 87, zy
20: 1 1 56 2 115, zy; 1 2 1 59 2 112 2 59, zy; 1 1 34 1 1 93 2 78 2 93 1 1 35 1 2 1 83 2 86 2 86 2 86 2 83 1 2 1 35 1 1 93 2 78 2 93, zy
21: 1 1 56 2 115, zy; 1 2 1 59 2 112 2 59, zy; 1 1 55 1 2 1 62 1 2 1 57 2 114 2 56 1 1 115 2 55 1 2 1 64 1 2 1 55 2 115 1 1 56 2 114 2 57 1 2 1 62 1 2 1 55 1 1 113 2 58 2 113, zy
22: 1 1 56 2 115, zy; 1 2 1 59 2 112 2 59, zy; 1 1 36 1 1 95 2 76 2 95 1 1 36 1 1 95 2 76 2 95 1 1 36 1 1 95 2 76 2 95 1 1 37 1 2 1 81 2 88 2 84 2 88 2 81 1 2 1 38 1 2 1 81 2 88 2 84 2 88 2 81 1 2 1 37 1 1 95 2 76 2 95, zy
23: 1 1 56 2 115, zy; 1 2 1 59 2 112 2 59, zy; 1 1 38 1 1 97 2 74 2 97 1 1 38 1 1 97 2 74 2 97 1 1 38 1 1 97 2 74 2 97 1 1 39 1 2 1 79 2 90 2 82 2 90 2 79 1 2 1 40 1 2 1 79 2 90 2 82 2 90 2 79 1 2 1 39 1 1 97 2 74 2 97, zy
24: 1 1 58 2 119, zy; 1 2 1 61 2 116 2 61, zy; 1 1 60 2 116 2 61 1 2 1 61 2 116 2 60 1 1 119 2 60 2 116 2 60 2 119, zy
25: 1 1 58 2 119, zy; 1 2 1 61 2 116 2 61, zy; 1 1 34 1 1 95 2 82 2 95 1 1 35 1 2 1 87 2 88 2 90 2 88 2 87 1 2 1 35 1 1 95 2 82 2 95, zy
26: 1 1 58 2 119, zy; 1 2 1 61 2 116 2 61, zy; 1 1 38 1 1 99 2 78 2 99 1 1 39 1 2 1 83 2 92 2 86 2 92 2 83 1 2 1 39 1 1 99 2 78 2 99, zy
27: 1 1 58 2 119, zy; 1 2 1 61 2 116 2 61, zy; 1 1 40 1 1 101 2 76 2 101 1 1 41 1 2 1 81 2 94 2 84 2 94 2 81 1 2 1 41 1 1 101 2 76 2 101, zy
28: 1 1 60 2 123, zy; 1 2 1 63 2 120 2 63, zy; 1 1 62 2 120 2 63 1 2 1 63 2 120 2 62 1 1 123 2 62 2 120 2 62 2 123, zy
29: 1 1 60 2 123, zy; 1 2 1 63 2 120 2 63, zy; 1 1 38 1 1 101 2 82 2 101 1 1 39 1 2 1 87 2 94 2 90 2 94 2 87 1 2 1 39 1 1 101 2 82 2 101, zy
30: 1 1 60 2 123, zy; 1 2 1 63 2 120 2 63, zy; 1 1 42 1 1 105 2 78 2 105 1 1 43 1 2 1 83 2 98 2 86 2 98 2 83 1 2 1 43 1 1 105 2 78 2 105, zy
31: 1 1 60 2 123, zy; 1 2 1 63 2 120 2 63, zy; 1 1 48 1 1 109 2 75 1 2 1 51 1 1 114 1 1 50 1 1 112 1 1 50 1 1 114 1 1 51 1 2 1 75 2 109 1 1 48 1 1 112 1 1 49 1 2 1 77 2 106 2 77 1 2 1 49 1 1 112, zy
32: 1 1 62 2 127, zy; 1 2 1 65 2 124 2 65, zy; 1 1 64 2 124 2 65 1 2 1 65 2 124 2 64 1 1 127 2 64 2 124 2 64 2 127, zy
33: 1 1 62 2 127, zy; 1 2 1 65 2 124 2 65, zy; 1 1 38 1 1 103 2 86 2 103 1 1 39 1 2 1 91 2 96 2 94 2 96 2 91 1 2 1 39 1 1 103 2 86 2 103, zy
34: 1 1 62 2 127, zy; 1 2 1 65 2 124 2 65, zy; 1 1 40 1 1 105 2 84 2 105 1 1 41 1 2 1 89 2 98 2 92 2 98 2 89 1 2 1 41 1 1 105 2 84 2 105, zy
35: 1 1 62 2 127, zy; 1 2 1 65 2 124 2 65, zy; 1 1 10 1 1 75 2 114 2 74 2 117 1 1 53 1 2 1 77 2 112 2 76 2 114 2 76 2 112 2 77 1 2 1 53 1 1 117 2 74 2 114 2 75, zy
36: 1 1 62 2 127, zy; 1 2 1 65 2 124 2 65, zy; 1 1 26 1 1 91 2 97 1 2 1 33 1 1 97 2 92 2 97 1 1 32 1 1 97 2 92 2 97 1 1 32 1 1 97 2 92 2 97 1 1 32 1 1 97 2 92 2 97 1 1 33 1 2 1 97 2 91 1 1 26 1 1 91 2 98 2 92 2 96 2 92 2 98 2 91, zy
37: 1 1 62 2 127, zy; 1 2 1 65 2 124 2 65, zy; 1 1 28 1 1 93 2 95 1 2 1 35 1 1 99 2 90 2 99 1 1 34 1 1 99 2 90 2 99 1 1 34 1 1 99 2 90 2 99 1 1 35 1 2 1 95 2 93 1 1 28 1 1 93 2 96 2 93 1 2 1 37 1 1 102 1 1 38 1 1 104 1 1 38 1 1 102 1 1 37 1 2 1 93 2 96 2 93, zy
38: 1 1 64 2 131, zy; 1 2 1 67 2 128 2 67, zy; 1 1 66 2 128 2 67 1 2 1 67 2 128 2 66 1 1 131 2 66 2 128 2 66 2 131, zy
39: 1 1 64 2 131, zy; 1 2 1 67 2 128 2 67, zy; 1 1 40 1 1 107 2 88 2 107 1 1 41 1 2 1 93 2 100 2 96 2 100 2 93 1 2 1 41 1 1 107 2 88 2 107, zy
40: 1 1 64 2 131, zy; 1 2 1 67 2 128 2 67, zy; 1 1 44 1 1 111 2 84 2 111 1 1 45 1 2 1 89 2 104 2 92 2 104 2 89 1 2 1 45 1 1 111 2 84 2 111, zy
41: 1 1 66 2 135, zy; 1 2 1 69 2 132 2 69, zy; 1 1 68 2 132 2 69 1 2 1 69 2 132 2 68 1 1 135 2 68 2 132 2 68 2 135, zy
42: 1 1 66 2 135, zy; 1 2 1 69 2 132 2 69, zy; 1 1 42 1 1 111 2 90 2 111 1 1 43 1 2 1 95 2 104 2 98 2 104 2 95 1 2 1 43 1 1 111 2 90 2 111, zy
43: 1 1 68 2 139, zy; 1 2 1 71 2 136 2 71, zy; 1 1 70 2 136 2 71 1 2 1 71 2 136 2 70 1 1 139 2 70 2 136 2 70 2 139, zy
44: 1 1 70 2 143, zy; 1 2 1 73 2 140 2 73, zy; 1 1 72 2 140 2 73 1 2 1 73 2 140 2 72 1 1 143 2 72 2 140 2 72 2 143, zy
45: 1 1 70 2 143, zy; 1 2 1 73 2 140 2 73, zy; 1 1 34 1 1 107 2 106 2 107 1 1 35 1 2 1 111 2 100 2 114 2 100 2 111 1 2 1 35 1 1 107 2 106 2 107, zy
46: 1 1 70 2 143, zy; 1 2 1 73 2 140 2 73, zy; 1 1 10 1 1 83 2 130 2 82 2 133 1 1 61 1 2 1 85 2 128 2 84 2 130 2 84 2 128 2 85 1 2 1 61 1 1 133 2 82 2 130 2 83, zy
47: 1 1 70 2 143, zy; 1 2 1 73 2 140 2 73, zy; 1 1 30 1 1 103 2 110 2 102 2 113 1 1 41 1 2 1 105 2 108 2 104 2 110 2 104 2 108 2 105 1 2 1 41 1 1 113 2 102 2 110 2 103, zy
48: 1 1 72 2 147, zy; 1 2 1 75 2 144 2 75, zy; 1 1 74 2 144 2 75 1 2 1 75 2 144 2 74 1 1 147 2 74 2 144 2 74 2 147, zy
49: 1 1 72 2 147, zy; 1 2 1 75 2 144 2 75, zy; 1 1 36 1 1 111 2 108 2 111 1 1 37 1 2 1 113 2 104 2 116 2 104 2 113 1 2 1 37 1 1 111 2 108 2 111, zy
50: 1 1 72 2 147, zy; 1 2 1 75 2 144 2 75, zy; 1 1 12 1 1 87 2 132 2 86 2 135 1 1 61 1 2 1 89 2 130 2 88 2 132 2 88 2 130 2 89 1 2 1 61 1 1 135 2 86 2 132 2 87, zy
51: 1 1 72 2 147, zy; 1 2 1 75 2 144 2 75, zy; 1 1 58 1 1 131 2 89 1 2 1 61 1 1 136 1 1 60 1 1 134 1 1 60 1 1 136 1 1 61 1 2 1 89 2 131 1 1 58 1 1 134 1 1 59 1 2 1 91 2 128 2 91 1 2 1 59 1 1 134, zy
52: 1 1 74 2 151, zy; 1 2 1 77 2 148 2 77, zy; 1 1 76 2 148 2 77 1 2 1 77 2 148 2 76 1 1 151 2 76 2 148 2 76 2 151, zy
53: 1 1 74 2 151, zy; 1 2 1 77 2 148 2 77, zy; 1 1 10 1 1 87 2 138 2 86 2 141 1 1 65 1 2 1 89 2 136 2 88 2 138 2 88 2 136 2 89 1 2 1 65 1 1 141 2 86 2 138 2 87, zy
54: 1 1 76 2 155, zy; 1 2 1 79 2 152 2 79, zy; 1 1 78 2 152 2 79 1 2 1 79 2 152 2 78 1 1 155 2 78 2 152 2 78 2 155, zy
55: 1 1 78 2 159, zy; 1 2 1 81 2 156 2 81, zy; 1 1 80 2 156 2 81 1 2 1 81 2 156 2 80 1 1 159 2 80 2 156 2 80 2 159, zy
56: 1 1 78 2 159, zy; 1 2 1 81 2 156 2 81, zy; 1 1 76 1 1 157 2 79 1 2 1 84 1 2 1 77 1 1 157 2 81 1 2 1 80 1 2 1 82 1 2 1 80 1 2 1 81 2 157 1 1 77 1 2 1 84 1 2 1 79 2 157, zy
57: 1 1 78 2 159, zy; 1 2 1 81 2 156 2 81, zy; 1 1 62 1 1 141 2 97 1 2 1 65 1 1 146 1 1 64 1 1 144 1 1 64 1 1 146 1 1 65 1 2 1 97 2 141 1 1 62 1 1 144 1 1 63 1 2 1 99 2 138 2 99 1 2 1 63 1 1 144, zy
58: 1 1 78 2 159, zy; 1 2 1 81 2 156 2 81, zy; 1 1 56 1 1 137 2 99 1 2 1 63 1 1 143 2 94 2 144 2 93 1 2 1 69 1 1 151 2 85 1 2 1 77 1 1 158 1 1 78 2 159 1 1 79 1 2 1 82 1 2 1 79 1 1 159 2 78 1 1 158 1 1 77 1 2 1 85 2 151 1 1 69 1 2 1 93 2 144 2 94 2 143 1 1 63 1 2 1 99 2 137, zy
59: 1 1 80 2 163, zy; 1 2 1 83 2 160 2 83, zy; 1 1 76 1 1 159 2 83 1 2 1 84 1 2 1 81 1 1 163 2 81 1 2 1 84 1 2 1 82 1 2 1 84 1 2 1 81 2 163 1 1 81 1 2 1 84 1 2 1 83 2 159, zy
60: 1 1 80 2 163, zy; 1 2 1 83 2 160 2 83, zy; 1 1 62 1 1 143 2 101 1 2 1 65 1 1 148 1 1 64 1 1 146 1 1 64 1 1 148 1 1 65 1 2 1 101 2 143 1 1 62 1 1 146 1 1 63 1 2 1 103 2 140 2 103 1 2 1 63 1 1 146, zy
61: 1 1 82 2 167, zy; 1 2 1 85 2 164 2 85, zy; 1 1 78 1 1 163 2 85 1 2 1 86 1 2 1 83 1 1 167 2 83 1 2 1 86 1 2 1 84 1 2 1 86 1 2 1 83 2 167 1 1 83 1 2 1 86 1 2 1 85 2 163, zy
62: 1 1 82 2 167, zy; 1 2 1 85 2 164 2 85, zy; 1 1 64 1 1 147 2 103 1 2 1 67 1 1 152 1 1 66 1 1 150 1 1 66 1 1 152 1 1 67 1 2 1 103 2 147 1 1 64 1 1 150 1 1 65 1 2 1 105 2 144 2 105 1 2 1 65 1 1 150, zy
63: 1 1 110 2 221, zy; 1 2 1 111 2 220 2 111, zy; 1 1 58 1 1 169 2 162 2 169 1 1 59 1 2 1 163 2 166 2 166 2 166 2 163 1 2 1 59 1 1 169 2 162 2 169, zy
64: 1 1 112 2 225, zy; 1 2 1 113 2 224 2 113, zy; 1 1 112 2 224 2 113 1 2 1 113 2 224 2 112 1 1 223 2 116 2 220 2 116 2 223, zy
65: 1 1 114 2 229, zy; 1 2 1 115 2 228 2 115, zy; 1 1 2 1 1 117 2 226 2 116 1 1 229 2 116 2 226 2 116 2 229 1 1 116 2 226 2 117, zy
66: 1 1 116 2 233, zy; 1 2 1 117 2 232 2 117, zy; 1 1 116 2 232 2 117 1 2 1 117 2 232 2 116 1 1 231 2 120 2 228 2 120 2 231, zy
67: 1 1 118 2 237, zy; 1 2 1 119 2 236 2 119, zy; 1 1 118 2 236 2 119 1 2 1 119 2 236 2 118 1 1 235 2 122 2 232 2 122 2 235, zy
68: 1 1 118 2 237, zy; 1 2 1 119 2 236 2 119, zy; 1 1 2 1 1 121 2 234 2 120 1 1 237 2 120 2 234 2 120 2 237 1 1 120 2 234 2 121, zy
69: 1 1 120 2 241, zy; 1 2 1 121 2 240 2 121, zy; 1 1 120 2 240 2 121 1 2 1 121 2 240 2 120 1 1 239 2 124 2 236 2 124 2 239, zy
70: 1 1 122 2 245, zy; 1 2 1 123 2 244 2 123, zy; 1 1 122 2 244 2 123 1 2 1 123 2 244 2 122 1 1 243 2 126 2 240 2 126 2 243, zy
71: 1 1 124 2 249, zy; 1 2 1 125 2 248 2 125, zy; 1 1 124 2 248 2 125 1 2 1 125 2 248 2 124 1 1 247 2 128 2 244 2 128 2 247, zy
72: 1 1 126 2 253, zy; 1 2 1 127 2 252 2 127, zy; 1 1 2 1 1 129 2 250 2 128 1 1 253 2 128 2 250 2 128 2 253 1 1 128 2 250 2 129, zy
73: 1 1 128 2 257, zy; 1 2 1 129 2 256 2 129, zy; 1 1 128 2 256 2 129 1 2 1 129 2 256 2 128 1 1 255 2 132 2 252 2 132 2 255, zy
74: 1 1 130 2 261, zy; 1 2 1 131 2 260 2 131, zy; 1 1 130 2 260 2 131 1 2 1 131 2 260 2 130 1 1 259 2 134 2 256 2 134 2 259, zy
75: 1 1 132 2 265, zy; 1 2 1 133 2 264 2 133, zy; 1 1 2 1 1 135 2 262 2 134 1 1 265 2 134 2 262 2 134 2 265 1 1 134 2 262 2 135, zy
76: 1 1 134 2 269, zy; 1 2 1 135 2 268 2 135, zy; 1 1 134 2 268 2 135 1 2 1 135 2 268 2 134 1 1 267 2 138 2 264 2 138 2 267, zy
77: 1 1 136 2 273, zy; 1 2 1 137 2 272 2 137, zy; 1 1 136 2 272 2 137 1 2 1 137 2 272 2 136 1 1 271 2 140 2 268 2 140 2 271, zy
78: 1 1 138 2 277, zy; 1 2 1 139 2 276 2 139, zy; 1 1 138 2 276 2 139 1 2 1 139 2 276 2 138 1 1 275 2 142 2 272 2 142 2 275, zy
79: 1 1 140 2 281, zy; 1 2 1 141 2 280 2 141, zy; 1 1 140 2 280 2 141 1 2 1 141 2 280 2 140 1 1 279 2 144 2 276 2 144 2 279, zy
80: 1 1 142 2 285, zy; 1 2 1 143 2 284 2 143, zy; 1 1 142 2 284 2 143 1 2 1 143 2 284 2 142 1 1 283 2 146 2 280 2 146 2 283, zy
81: 1 1 144 2 289, zy; 1 2 1 145 2 288 2 145, zy; 1 1 144 2 288 2 145 1 2 1 145 2 288 2 144 1 1 287 2 148 2 284 2 148 2 287, zy
82: 1 1 146 2 293, zy; 1 2 1 147 2 292 2 147, zy; 1 1 146 2 292 2 147 1 2 1 147 2 292 2 146 1 1 291 2 150 2 288 2 150 2 291, zy
83: 1 1 148 2 297, zy; 1 2 1 149 2 296 2 149, zy; 1 1 148 2 296 2 149 1 2 1 149 2 296 2 148 1 1 295 2 152 2 292 2 152 2 295, zy
84: 1 1 150 2 301, zy; 1 2 1 151 2 300 2 151, zy; 1 1 2 1 1 153 2 298 2 152 1 1 301 2 152 2 298 2 152 2 301 1 1 152 2 298 2 153, zy
85: 1 1 152 2 305, zy; 1 2 1 153 2 304 2 153, zy; 1 1 152 2 304 2 153 1 2 1 153 2 304 2 152 1 1 303 2 156 2 300 2 156 2 303, zy
86: 1 1 154 2 309, zy; 1 2 1 155 2 308 2 155, zy; 1 1 2 1 1 157 2 306 2 156 1 1 309 2 156 2 306 2 156 2 309 1 1 156 2 306 2 157, zy
87: 1 1 17 1 2 1 44 1 2 1 17 1 1 48 1 1 18 1 1 48, zy; 1 2 1 30, zy; 1 1 16 1 1 46 1 1 17 1 2 1 42 1 2 1 17 1 1 46, zy
88: 1 1 17 1 2 1 52 1 2 1 17 1 1 52 1 1 18 1 1 52, zy; 1 2 1 34, zy; 1 1 18 1 1 52 1 1 19 1 2 1 48 1 2 1 19 1 1 52, zy
89: 1 1 19 1 2 1 54 1 2 1 19 1 1 56 1 1 20 1 1 56, zy; 1 2 1 36, zy; 1 1 20 1 1 56 1 1 21 1 2 1 50 1 2 1 21 1 1 56, zy
90: 1 1 21 1 2 1 44 1 2 1 21 1 1 54 1 1 22 1 1 54, zy; 1 2 1 32, zy; 1 1 18 1 1 50 1 1 19 1 2 1 44 1 2 1 19 1 1 50, zy
91: 1 1 21 1 2 1 56 1 2 1 21 1 1 60 1 1 22 1 1 60, zy; 1 2 1 38, zy; 1 1 22 1 1 60 1 1 23 1 2 1 52 1 2 1 23 1 1 60, zy
92: 1 1 21 1 2 1 64 1 2 1 21 1 1 64 1 1 22 1 1 64, zy; 1 2 1 42, zy; 1 1 32 1 1 74 1 1 33 1 2 1 50 1 2 1 33 1 1 74, zy
93: 1 1 27 1 2 1 54 1 2 1 27 1 1 68 1 1 28 1 1 68, zy; 1 2 1 40, zy; 1 1 30 1 1 70 1 1 31 1 2 1 48 1 2 1 31 1 1 70, zy
94: 1 1 29 1 2 1 88 1 2 1 29 1 1 88 1 1 30 1 1 88, zy; 1 2 1 58, zy; 1 1 40 1 1 98 1 1 41 1 2 1 74 1 2 1 41 1 1 98, zy
95: 1 1 31 1 2 1 94 1 2 1 31 1 1 94 1 1 32 1 1 94, zy; 1 2 1 62, zy; 1 1 32 1 1 94 1 1 33 1 2 1 90 1 2 1 33 1 1 94, zy
96: 1 1 31 1 2 1 94 1 2 1 31 1 1 94 1 1 32 1 1 94, zy; 1 2 1 62, zy; 1 1 56 1 1 118 1 1 57 1 2 1 66 1 2 1 57 1 1 118, zy
97: 1 1 33 1 2 1 56 1 2 1 33 1 1 78 1 1 34 1 1 78, zy; 1 2 1 44, zy; 1 1 30 1 1 74 1 1 31 1 2 1 56 1 2 1 31 1 1 74, zy
98: 1 1 35 1 2 1 102 1 2 1 35 1 1 104 1 1 36 1 1 104, zy; 1 2 1 68, zy; 1 1 50 1 1 118 1 1 51 1 2 1 84 1 2 1 51 1 1 118, zy
99: 1 1 37 1 2 1 60 1 2 1 37 1 1 86 1 1 38 1 1 86, zy; 1 2 1 48, zy; 1 1 38 1 1 86 1 1 39 1 2 1 56 1 2 1 39 1 1 86, zy
100: 1 1 37 1 2 1 112 1 2 1 37 1 1 112 1 1 38 1 1 112, zy; 1 2 1 74, zy; 1 1 73 1 2 1 73 1 1 146, zy
101: 1 1 37 1 2 1 112 1 2 1 37 1 1 112 1 1 38 1 1 112, zy; 1 2 1 74, zy; 1 1 54 1 1 128 1 1 55 1 2 1 92 1 2 1 55 1 1 128, zy
102: 1 1 39 1 2 1 74 1 2 1 39 1 1 96 1 1 40 1 1 96, zy; 1 2 1 56, zy; 1 1 50 1 1 106 1 1 51 1 2 1 60 1 2 1 51 1 1 106, zy
103: 1 1 39 1 2 1 118 1 2 1 39 1 1 118 1 1 40 1 1 118, zy; 1 2 1 78, zy; 1 1 40 1 1 118 1 1 41 1 2 1 114 1 2 1 41 1 1 118, zy
104: 1 1 43 1 2 1 130 1 2 1 43 1 1 130 1 1 44 1 1 130, zy; 1 2 1 86, zy; 1 1 85 1 2 1 85 1 1 170, zy
105: 1 1 45 1 2 1 116 1 2 1 45 1 1 126 1 1 46 1 1 126, zy; 1 2 1 80, zy; 1 1 42 1 1 122 1 1 43 1 2 1 116 1 2 1 43 1 1 122, zy
106: 1 1 45 1 2 1 132 1 2 1 45 1 1 134 1 1 46 1 1 134, zy; 1 2 1 88, zy; 1 1 87 1 2 1 87 1 1 174, zy
107: 1 1 45 1 2 1 136 1 2 1 45 1 1 136 1 1 46 1 1 136, zy; 1 2 1 90, zy; 1 1 89 1 2 1 89 1 1 178, zy
108: 1 1 47 1 2 1 118 1 2 1 47 1 1 130 1 1 48 1 1 130, zy; 1 2 1 82, zy; 1 1 62 1 1 144 1 1 63 1 2 1 100 1 2 1 63 1 1 144, zy
109: 1 1 47 1 2 1 122 1 2 1 47 1 1 132 1 1 48 1 1 132, zy; 1 2 1 84, zy; 1 1 83 1 2 1 83 1 1 166, zy
110: 1 1 51 1 2 1 102 1 2 1 51 1 1 128 1 1 52 1 1 128, zy; 1 2 1 76, zy; 1 1 66 1 1 142 1 1 67 1 2 1 84 1 2 1 67 1 1 142, zy
111: 1 1 53 1 2 1 160 1 2 1 53 1 1 160 1 1 54 1 1 160, zy; 1 2 1 106, zy; 1 1 105 1 2 1 105 1 1 210, zy
112: 1 1 57 1 2 1 76 1 2 1 57 1 1 124 1 1 58 1 1 124, zy; 1 2 1 66, zy; 1 1 34 1 1 100 1 1 35 1 2 1 96 1 2 1 35 1 1 100, zy
113: 1 1 60 1 1 123 2 60 1 1 123 2 60 2 123 1 1 60 2 123, zy; 1 2 1 63 2 120 2 63, zy; 1 1 57 1 2 1 68 1 2 1 59 2 123 1 1 59 1 2 1 68 1 2 1 58 1 2 1 68 1 2 1 59 1 1 123 2 59 1 2 1 68 1 2 1 57 1 1 119 2 64 2 119, zy
114: 1 1 60 2 127 1 1 62 2 126 2 62 1 1 127 2 60 1 1 124, zy; 2 62 2 126, yx; 1 1 28 1 1 93 2 95 1 1 31 1 2 1 99 2 88 2 99 1 2 1 31 1 1 95 2 93, zy
115: 1 1 62 1 1 129 2 64 1 1 129 2 66 2 129 1 1 64 2 129, zy; 2 64 2 130, yx; 1 1 28 1 1 95 2 99 1 1 33 1 2 1 101 2 92 2 101 1 2 1 33 1 1 99 2 95, zy
116: 1 1 62 1 1 129 2 64 1 1 129 2 66 2 129 1 1 64 2 129, zy; 2 64 2 130, yx; 1 1 32 1 1 99 2 94 2 101 1 1 35 1 2 1 99 2 94 2 100 2 94 2 99 1 2 1 35 1 1 101 2 94 2 99, zy
117: 1 1 64 2 135 1 1 66 2 134 2 66 1 1 135 2 64 1 1 132, zy; 2 66 2 134, yx; 1 1 30 1 1 99 2 101 1 1 33 1 2 1 105 2 94 2 105 1 2 1 33 1 1 101 2 99, zy
118: 1 1 65 1 2 1 196 1 2 1 65 1 1 196 1 1 66 1 1 196, zy; 1 2 1 130, zy; 1 1 129 1 2 1 129 1 1 258, zy
119: 1 1 67 1 2 1 202 1 2 1 67 1 1 202 1 1 68 1 1 202, zy; 1 2 1 134, zy; 1 1 133 1 2 1 133 1 1 266, zy
120: 1 1 69 1 2 1 204 1 2 1 69 1 1 206 1 1 70 1 1 206, zy; 1 2 1 136, zy; 1 1 135 1 2 1 135 1 1 270, zy
121: 1 1 69 1 2 1 208 1 2 1 69 1 1 208 1 1 70 1 1 208, zy; 1 2 1 138, zy; 1 1 137 1 2 1 137 1 1 274, zy
122: 1 1 70 1 1 145 2 72 1 1 145 2 74 2 145 1 1 72 2 145, zy; 2 72 2 146, yx; 1 1 40 1 1 115 2 102 2 117 1 1 43 1 2 1 107 2 110 2 108 2 110 2 107 1 2 1 43 1 1 117 2 102 2 115, zy
123: 1 1 71 1 2 1 106 1 2 1 71 1 1 160 1 1 72 1 1 160, zy; 1 2 1 88, zy; 1 1 87 1 2 1 87 1 1 174, zy
124: 1 1 71 1 2 1 214 1 2 1 71 1 1 214 1 1 72 1 1 214, zy; 1 2 1 142, zy; 1 1 141 1 2 1 141 1 1 282, zy
125: 1 1 73 1 2 1 92 1 2 1 73 1 1 156 1 1 74 1 1 156, zy; 1 2 1 82, zy; 1 1 81 1 2 1 81 1 1 162, zy
126: 1 1 73 1 2 1 220 1 2 1 73 1 1 220 1 1 74 1 1 220, zy; 1 2 1 146, zy; 1 1 145 1 2 1 145 1 1 290, zy
127: 1 1 75 1 2 1 226 1 2 1 75 1 1 226 1 1 76 1 1 226, zy; 1 2 1 150, zy; 1 1 149 1 2 1 149 1 1 298, zy
128: 1 1 77 1 2 1 232 1 2 1 77 1 1 232 1 1 78 1 1 232, zy; 1 2 1 154, zy; 1 1 153 1 2 1 153 1 1 306, zy
129: 1 1 81 1 2 1 240 1 2 1 81 1 1 242 1 1 82 1 1 242, zy; 1 2 1 160, zy; 1 1 159 1 2 1 159 1 1 318, zy
130: 1 1 81 1 2 1 244 1 2 1 81 1 1 244 1 1 82 1 1 244, zy; 1 2 1 162, zy; 1 1 161 1 2 1 161 1 1 322, zy
131: 1 1 87 1 2 1 262 1 2 1 87 1 1 262 1 1 88 1 1 262, zy; 1 2 1 174, zy; 1 1 173 1 2 1 173 1 1 346, zy
132: 1 1 89 1 2 1 176 1 2 1 89 1 1 222 1 1 90 1 1 222, zy; 1 2 1 132, zy; 1 1 131 1 2 1 131 1 1 262, zy
133: 1 1 89 1 2 1 200 1 2 1 89 1 1 234 1 1 90 1 1 234, zy; 1 2 1 144, zy; 1 1 143 1 2 1 143 1 1 286, zy
134: 1 1 89 1 2 1 264 1 2 1 89 1 1 266 1 1 90 1 1 266, zy; 1 2 1 176, zy; 1 1 175 1 2 1 175 1 1 350, zy
135: 1 1 91 1 2 1 274 1 2 1 91 1 1 274 1 1 92 1 1 274, zy; 1 2 1 182, zy; 1 1 181 1 2 1 181 1 1 362, zy
136: 1 1 95 1 2 1 130 1 2 1 95 1 1 208 1 1 96 1 1 208, zy; 1 2 1 112, zy; 1 1 111 1 2 1 111 1 1 222, zy
137: 1 1 95 1 2 1 286 1 2 1 95 1 1 286 1 1 96 1 1 286, zy; 1 2 1 190, zy; 1 1 189 1 2 1 189 1 1 378, zy
138: 1 1 98 2 201 1 1 100 2 200 2 100 1 1 201 2 98 1 1 198, zy; 2 100 2 200, yx; 1 1 49 1 2 1 153 2 146 2 153 1 2 1 49 1 1 149 2 151 1 1 50 1 1 151 2 149, zy
139: 1 1 100 2 205 1 1 102 2 204 2 102 1 1 205 2 100 1 1 202, zy; 2 102 2 204, yx; 1 1 50 1 1 153 2 153 1 1 51 1 2 1 155 2 150 2 155 1 2 1 51 1 1 153 2 153, zy
140: 1 1 102 2 209 1 1 104 2 208 2 104 1 1 209 2 102 1 1 206, zy; 2 156, yx; 1 1 51 1 2 1 159 2 152 2 159 1 2 1 51 1 1 155 2 157 1 1 52 1 1 157 2 155, zy
141: 1 1 104 2 213 1 1 106 2 212 2 106 1 1 213 2 104 1 1 210, zy; 2 106 2 212, yx; 1 1 52 1 1 159 2 159 1 1 53 1 2 1 161 2 156 2 161 1 2 1 53 1 1 159 2 159, zy
142: 1 1 106 2 217 1 1 108 2 216 2 108 1 1 217 2 106 1 1 214, zy; 2 108 2 216, yx; 1 1 53 1 2 1 165 2 158 2 165 1 2 1 53 1 1 161 2 163 1 1 54 1 1 163 2 161, zy
143: 1 1 107 1 2 1 166 1 2 1 107 1 1 244 1 1 108 1 1 244, zy; 1 2 1 136, zy; 1 1 135 1 2 1 135 1 1 270, zy
144: 1 1 108 2 221 1 1 110 2 220 2 110 1 1 221 2 108 1 1 218, zy; 2 110 2 220, yx; 1 1 54 1 1 165 2 165 1 1 55 1 2 1 167 2 162 2 167 1 2 1 55 1 1 165 2 165, zy
145: 1 1 109 1 2 1 196 1 2 1 109 1 1 262 1 1 110 1 1 262, zy; 1 2 1 152, zy; 1 1 151 1 2 1 151 1 1 302, zy
146: 1 1 110 1 1 223 2 112 1 1 223 2 114 2 223 1 1 112 2 223, zy; 2 114 2 222, yx; 1 1 99 1 2 1 127 2 208 2 127 1 2 1 99 1 1 211 2 125 1 2 1 101 1 1 214 1 1 101 1 2 1 125 2 211, zy
147: 1 1 110 2 225 1 1 112 2 224 2 112 1 1 225 2 110 1 1 222, zy; 2 112 2 224, yx; 1 1 55 1 2 1 171 2 164 2 171 1 2 1 55 1 1 167 2 169 1 1 56 1 1 169 2 167, zy
148: 1 1 112 1 1 227 2 114 1 1 227 2 116 2 227 1 1 114 2 227, zy; 2 116 2 226, yx; 1 1 60 1 1 175 2 166 2 177 1 1 63 1 2 1 167 2 174 2 168 2 174 2 167 1 2 1 63 1 1 177 2 166 2 175, zy
149: 1 1 112 2 229 1 1 114 2 228 2 114 1 1 229 2 112 1 1 226, zy; 2 114 2 228, yx; 1 1 56 1 1 171 2 171 1 1 57 1 2 1 173 2 168 2 173 1 2 1 57 1 1 171 2 171, zy
150: 1 1 113 1 2 1 340 1 2 1 113 1 1 340 1 1 114 1 1 340, zy; 1 2 1 226, zy; 1 1 225 1 2 1 225 1 1 450, zy
151: 1 1 114 1 1 231 2 116 1 1 231 2 118 2 231 1 1 116 2 231, zy; 2 118 2 230, yx; 1 1 57 1 2 1 177 2 170 2 177 1 2 1 57 1 1 173 2 175 1 1 58 1 1 175 2 173, zy
152: 1 1 114 1 1 231 2 116 1 1 231 2 118 2 231 1 1 116 2 231, zy; 2 118 2 230, yx; 1 1 99 1 2 1 135 2 212 2 135 1 2 1 99 1 1 215 2 133 1 2 1 101 1 1 218 1 1 101 1 2 1 133 2 215, zy
153: 1 1 115 1 2 1 346 1 2 1 115 1 1 346 1 1 116 1 1 346, zy; 1 2 1 230, zy; 1 1 229 1 2 1 229 1 1 458, zy
154: 1 1 116 1 1 235 2 118 1 1 235 2 120 2 235 1 1 118 2 235, zy; 2 120 2 234, yx; 1 1 99 1 2 1 139 2 214 2 139 1 2 1 99 1 1 217 2 137 1 2 1 101 1 1 220 1 1 101 1 2 1 137 2 217, zy
155: 1 1 116 2 237 1 1 118 2 236 2 118 1 1 237 2 116 1 1 234, zy; 2 118 2 236, yx; 1 1 58 1 1 177 2 177 1 1 59 1 2 1 179 2 174 2 179 1 2 1 59 1 1 177 2 177, zy
156: 1 1 118 2 241 1 1 120 2 240 2 120 1 1 241 2 118 1 1 238, zy; 2 120 2 240, yx; 1 1 59 1 2 1 183 2 176 2 183 1 2 1 59 1 1 179 2 181 1 1 60 1 1 181 2 179, zy
157: 1 1 118 2 241 1 1 120 2 240 2 120 1 1 241 2 118 1 1 238, zy; 2 120 2 240, yx; 1 1 99 1 2 1 143 2 216 2 143 1 2 1 99 1 1 219 2 141 1 2 1 101 1 1 222 1 1 101 1 2 1 141 2 219, zy
158: 1 1 119 1 2 1 154 1 2 1 119 1 1 256 1 1 120 1 1 256, zy; 1 2 1 136, zy; 1 1 135 1 2 1 135 1 1 270, zy
159: 1 1 120 1 1 243 2 122 1 1 243 2 124 2 243 1 1 122 2 243, zy; 2 124 2 242, yx; 1 1 99 1 2 1 147 2 218 2 147 1 2 1 99 1 1 221 2 145 1 2 1 101 1 1 224 1 1 101 1 2 1 145 2 221, zy
160: 1 1 120 2 245 1 1 122 2 244 2 122 1 1 245 2 120 1 1 242, zy; 2 122 2 244, yx; 1 1 60 1 1 183 2 183 1 1 61 1 2 1 185 2 180 2 185 1 2 1 61 1 1 183 2 183, zy
161: 1 1 122 2 249 1 1 124 2 248 2 124 1 1 249 2 122 1 1 246, zy; 2 124 2 248, yx; 1 1 61 1 2 1 189 2 182 2 189 1 2 1 61 1 1 185 2 187 1 1 62 1 1 187 2 185, zy
162: 1 1 122 2 249 1 1 124 2 248 2 124 1 1 249 2 122 1 1 246, zy; 2 124 2 248, yx; 1 1 101 1 2 1 149 2 222 2 149 1 2 1 101 1 1 225 2 147 1 2 1 103 1 1 228 1 1 103 1 2 1 147 2 225, zy
163: 1 1 124 2 253 1 1 126 2 252 2 126 1 1 253 2 124 1 1 250, zy; 2 126 2 252, yx; 1 1 62 1 1 189 2 189 1 1 63 1 2 1 191 2 186 2 191 1 2 1 63 1 1 189 2 189, zy
164: 1 1 125 1 2 1 148 1 2 1 125 1 1 262 1 1 126 1 1 262, zy; 1 2 1 136, zy; 1 1 135 1 2 1 135 1 1 270, zy
165: 1 1 126 2 257 1 1 128 2 256 2 128 1 1 257 2 126 1 1 254, zy; 2 128 2 256, yx; 1 1 63 1 2 1 195 2 188 2 195 1 2 1 63 1 1 191 2 193 1 1 64 1 1 193 2 191, zy
166: 1 1 127 1 2 1 154 1 2 1 127 1 1 268 1 1 128 1 1 268, zy; 1 2 1 140, zy; 1 1 139 1 2 1 139 1 1 278, zy
167: 1 1 128 1 1 259 2 130 1 1 259 2 132 2 259 1 1 130 2 259, zy; 2 132 2 258, yx; 1 1 62 1 1 193 2 196 2 195 1 1 65 1 2 1 197 2 192 2 198 2 192 2 197 1 2 1 65 1 1 195 2 196 2 193, zy
168: 1 1 128 2 261 1 1 130 2 260 2 130 1 1 261 2 128 1 1 258, zy; 2 130 2 260, yx; 1 1 64 1 1 195 2 195 1 1 65 1 2 1 197 2 192 2 197 1 2 1 65 1 1 195 2 195, zy
169: 1 1 130 1 1 263 2 132 1 1 263 2 134 2 263 1 1 132 2 263, zy; 2 134 2 262, yx; 1 1 65 1 2 1 201 2 194 2 201 1 2 1 65 1 1 197 2 199 1 1 66 1 1 199 2 197, zy
170: 1 1 130 1 1 263 2 132 1 1 263 2 134 2 263 1 1 132 2 263, zy; 2 134 2 262, yx; 1 1 103 1 2 1 163 2 232 2 163 1 2 1 103 1 1 235 2 161 1 2 1 105 1 1 238 1 1 105 1 2 1 161 2 235, zy
171: 1 1 130 2 265 1 1 132 2 264 2 132 1 1 265 2 130 1 1 262, zy; 2 132 2 264, yx; 1 1 111 1 2 1 155 2 240 2 155 1 2 1 111 1 1 243 2 153 1 2 1 113 1 1 246 1 1 113 1 2 1 153 2 243, zy
172: 1 1 132 2 269 1 1 134 2 268 2 134 1 1 269 2 132 1 1 266, zy; 2 134 2 268, yx; 1 1 66 1 1 201 2 201 1 1 67 1 2 1 203 2 198 2 203 1 2 1 67 1 1 201 2 201, zy
173: 1 1 133 1 2 1 172 1 2 1 133 1 1 286 1 1 134 1 1 286, zy; 1 2 1 152, zy; 1 1 151 1 2 1 151 1 1 302, zy
174: 1 1 134 1 1 271 2 136 1 1 271 2 138 2 271 1 1 136 2 271, zy; 2 138 2 270, yx; 1 1 135 1 2 1 139 2 268 2 139 1 2 1 135 1 1 271 2 137 1 2 1 137 2 271, zy
175: 1 1 134 2 273 1 1 136 2 272 2 136 1 1 273 2 134 1 1 270, zy; 2 136 2 272, yx; 1 1 67 1 2 1 207 2 200 2 207 1 2 1 67 1 1 203 2 205 1 1 68 1 1 205 2 203, zy
176: 1 1 134 2 273 1 1 136 2 272 2 136 1 1 273 2 134 1 1 270, zy; 2 136 2 272, yx; 1 1 107 1 2 1 167 2 240 2 167 1 2 1 107 1 1 243 2 165 1 2 1 109 1 1 246 1 1 109 1 2 1 165 2 243, zy
177: 1 1 136 2 277 1 1 138 2 276 2 138 1 1 277 2 136 1 1 274, zy; 2 140 2 274, yx; 1 1 68 1 1 207 2 207 1 1 69 1 2 1 209 2 204 2 209 1 2 1 69 1 1 207 2 207, zy
178: 1 1 137 1 2 1 160 1 2 1 137 1 1 286 1 1 138 1 1 286, zy; 1 2 1 148, zy; 1 1 147 1 2 1 147 1 1 294, zy
179: 1 1 138 2 281 1 1 140 2 280 2 140 1 1 281 2 138 1 1 278, zy; 2 142 2 278, yx; 1 1 69 1 2 1 213 2 206 2 213 1 2 1 69 1 1 209 2 211 1 1 70 1 1 211 2 209, zy
180: 1 1 140 1 1 283 2 142 1 1 283 2 144 2 283 1 1 142 2 283, zy; 2 144 2 282, yx; 1 1 131 1 2 1 155 2 270 2 155 1 2 1 131 1 1 273 2 153 1 2 1 133 1 1 276 1 1 133 1 2 1 153 2 273, zy
181: 1 1 140 2 285 1 1 142 2 284 2 142 1 1 285 2 140 1 1 282, zy; 2 144 2 282, yx; 1 1 70 1 1 213 2 213 1 1 71 1 2 1 215 2 210 2 215 1 2 1 71 1 1 213 2 213, zy
182: 1 1 142 1 1 287 2 144 1 1 287 2 146 2 287 1 1 144 2 287, zy; 2 146 2 286, yx; 1 1 74 1 1 219 2 212 2 221 1 1 77 1 2 1 213 2 218 2 214 2 218 2 213 1 2 1 77 1 1 221 2 212 2 219, zy
183: 1 1 142 2 289 1 1 144 2 288 2 144 1 1 289 2 142 1 1 286, zy; 2 146 2 286, yx; 1 1 71 1 2 1 219 2 212 2 219 1 2 1 71 1 1 215 2 217 1 1 72 1 1 217 2 215, zy
184: 1 1 143 1 2 1 170 1 2 1 143 1 1 300 1 1 144 1 1 300, zy; 1 2 1 156, zy; 1 1 155 1 2 1 155 1 1 310, zy
185: 1 1 144 1 1 291 2 146 1 1 291 2 148 2 291 1 1 146 2 291, zy; 2 148 2 290, yx; 1 1 115 1 2 1 179 2 258 2 179 1 2 1 115 1 1 261 2 177 1 2 1 117 1 1 264 1 1 117 1 2 1 177 2 261, zy
186: 1 1 146 1 1 295 2 148 1 1 295 2 150 2 295 1 1 148 2 295, zy; 2 150 2 294, yx; 1 1 76 1 1 225 2 218 2 227 1 1 79 1 2 1 219 2 224 2 220 2 224 2 219 1 2 1 79 1 1 227 2 218 2 225, zy
187: 1 1 225 1 2 1 240 1 2 1 225 1 1 458 1 1 226 1 1 458, zy; 1 2 1 232, zy; 1 1 231 1 2 1 231 1 1 462, zy
188: 1 1 227 1 2 1 242 1 2 1 227 1 1 462 1 1 228 1 1 462, zy; 1 2 1 234, zy; 1 1 233 1 2 1 233 1 1 466, zy
189: 1 1 229 1 2 1 244 1 2 1 229 1 1 466 1 1 230 1 1 466, zy; 1 2 1 236, zy; 1 1 235 1 2 1 235 1 1 470, zy
190: 1 1 231 1 2 1 246 1 2 1 231 1 1 470 1 1 232 1 1 470, zy; 1 2 1 238, zy; 1 1 237 1 2 1 237 1 1 474, zy
191: 1 1 233 1 2 1 248 1 2 1 233 1 1 474 1 1 234 1 1 474, zy; 1 2 1 240, zy; 1 1 239 1 2 1 239 1 1 478, zy
192: 1 1 235 1 2 1 250 1 2 1 235 1 1 478 1 1 236 1 1 478, zy; 1 2 1 242, zy; 1 1 241 1 2 1 241 1 1 482, zy
193: 1 1 237 1 2 1 252 1 2 1 237 1 1 482 1 1 238 1 1 482, zy; 1 2 1 244, zy; 1 1 243 1 2 1 243 1 1 486, zy
194: 1 1 239 1 2 1 254 1 2 1 239 1 1 486 1 1 240 1 1 486, zy; 1 2 1 246, zy; 1 1 245 1 2 1 245 1 1 490, zy
195: 1 1 241 1 2 1 256 1 2 1 241 1 1 490 1 1 242 1 1 490, zy; 1 2 1 248, zy; 1 1 247 1 2 1 247 1 1 494, zy
196: 1 1 243 1 2 1 258 1 2 1 243 1 1 494 1 1 244 1 1 494, zy; 1 2 1 250, zy; 1 1 249 1 2 1 249 1 1 498, zy
197: 1 1 245 1 2 1 260 1 2 1 245 1 1 498 1 1 246 1 1 498, zy; 1 2 1 252, zy; 1 1 251 1 2 1 251 1 1 502, zy
198: 1 1 247 1 2 1 262 1 2 1 247 1 1 502 1 1 248 1 1 502, zy; 1 2 1 254, zy; 1 1 253 1 2 1 253 1 1 506, zy
199: 1 1 249 1 2 1 264 1 2 1 249 1 1 506 1 1 250 1 1 506, zy; 1 2 1 256, zy; 1 1 255 1 2 1 255 1 1 510, zy
200: 1 1 251 1 2 1 266 1 2 1 251 1 1 510 1 1 252 1 1 510, zy; 1 2 1 258, zy; 1 1 257 1 2 1 257 1 1 514, zy
201: 1 1 253 1 2 1 268 1 2 1 253 1 1 514 1 1 254 1 1 514, zy; 1 2 1 260, zy; 1 1 259 1 2 1 259 1 1 518, zy
202: 1 1 255 1 2 1 270 1 2 1 255 1 1 518 1 1 256 1 1 518, zy; 1 2 1 262, zy; 1 1 261 1 2 1 261 1 1 522, zy
203: 1 1 257 1 2 1 272 1 2 1 257 1 1 522 1 1 258 1 1 522, zy; 1 2 1 264, zy; 1 1 263 1 2 1 263 1 1 526, zy
204: 1 1 259 1 2 1 274 1 2 1 259 1 1 526 1 1 260 1 1 526, zy; 1 2 1 266, zy; 1 1 265 1 2 1 265 1 1 530, zy
205: 1 1 261 1 2 1 276 1 2 1 261 1 1 530 1 1 262 1 1 530, zy; 1 2 1 268, zy; 1 1 267 1 2 1 267 1 1 534, zy
206: 1 1 263 1 2 1 278 1 2 1 263 1 1 534 1 1 264 1 1 534, zy; 1 2 1 270, zy; 1 1 269 1 2 1 269 1 1 538, zy
207: 1 1 265 1 2 1 280 1 2 1 265 1 1 538 1 1 266 1 1 538, zy; 1 2 1 272, zy; 1 1 271 1 2 1 271 1 1 542, zy
208: 1 1 88 2 174 2 89 1 2 1 89 2 174 2 88 1 1 175 2 90 2 172 2 90 2 175, zy; 2 90 2 172 2 90 2 174, yx; 1 1 42 1 1 131 2 132 2 131 1 1 43 1 2 1 135 2 126 2 138 2 126 2 135 1 2 1 43 1 1 131 2 132 2 131, zy
209: 1 1 104 2 206 2 105 1 2 1 105 2 206 2 104 1 1 207 2 106 2 204 2 106 2 207, zy; 2 106 2 204 2 106 2 206, yx; 1 1 50 1 1 155 2 156 2 155 1 1 51 1 2 1 159 2 150 2 162 2 150 2 159 1 2 1 51 1 1 155 2 156 2 155, zy
210: 1 1 112 2 222 2 113 1 2 1 113 2 222 2 112 1 1 223 2 114 2 220 2 114 2 223, zy; 2 114 2 220 2 114 2 222, yx; 1 1 54 1 1 167 2 168 2 167 1 1 55 1 2 1 171 2 162 2 174 2 162 2 171 1 2 1 55 1 1 167 2 168 2 167, zy
211: 1 1 114 2 228 2 115 1 2 1 115 2 228 2 114 1 1 227 2 118 2 224 2 118 2 227, zy; 2 116 2 226 2 116 2 228, yx; 1 1 56 1 1 171 2 172 2 171 1 1 57 1 2 1 173 2 168 2 176 2 168 2 173 1 2 1 57 1 1 171 2 172 2 171, zy
212: 1 1 116 2 230 2 117 1 2 1 117 2 230 2 116 1 1 231 2 118 2 228 2 118 2 231, zy; 2 118 2 228 2 118 2 230, yx; 1 1 56 1 1 173 2 174 2 173 1 1 57 1 2 1 177 2 168 2 180 2 168 2 177 1 2 1 57 1 1 173 2 174 2 173, zy
213: 1 1 116 2 232 2 117 1 2 1 117 2 232 2 116 1 1 231 2 120 2 228 2 120 2 231, zy; 2 118 2 230 2 118 2 232, yx; 1 1 56 1 1 173 2 176 2 173 1 1 57 1 2 1 177 2 170 2 180 2 170 2 177 1 2 1 57 1 1 173 2 176 2 173, zy
214: 1 1 118 2 234 2 119 1 2 1 119 2 234 2 118 1 1 235 2 120 2 232 2 120 2 235, zy; 2 120 2 232 2 120 2 234, yx; 1 1 58 1 1 177 2 176 2 177 1 1 59 1 2 1 179 2 172 2 182 2 172 2 179 1 2 1 59 1 1 177 2 176 2 177, zy
215: 1 1 118 2 236 2 119 1 2 1 119 2 236 2 118 1 1 235 2 122 2 232 2 122 2 235, zy; 2 120 2 234 2 120 2 236, yx; 1 1 58 1 1 177 2 178 2 177 1 1 59 1 2 1 179 2 174 2 182 2 174 2 179 1 2 1 59 1 1 177 2 178 2 177, zy
216: 1 1 120 2 240 2 121 1 2 1 121 2 240 2 120 1 1 239 2 124 2 236 2 124 2 239, zy; 2 122 2 238 2 122 2 240, yx; 1 1 58 1 1 179 2 182 2 179 1 1 59 1 2 1 183 2 176 2 186 2 176 2 183 1 2 1 59 1 1 179 2 182 2 179, zy
217: 1 1 122 2 244 2 123 1 2 1 123 2 244 2 122 1 1 243 2 126 2 240 2 126 2 243, zy; 2 124 2 242 2 124 2 244, yx; 1 1 60 1 1 183 2 184 2 183 1 1 61 1 2 1 185 2 180 2 188 2 180 2 185 1 2 1 61 1 1 183 2 184 2 183, zy
218: 1 1 124 2 248 2 125 1 2 1 125 2 248 2 124 1 1 247 2 128 2 244 2 128 2 247, zy; 2 126 2 246 2 126 2 248, yx; 1 1 60 1 1 185 2 188 2 185 1 1 61 1 2 1 189 2 182 2 192 2 182 2 189 1 2 1 61 1 1 185 2 188 2 185, zy
219: 1 1 126 2 252 2 127 1 2 1 127 2 252 2 126 1 1 251 2 130 2 248 2 130 2 251, zy; 2 128 2 250 2 128 2 252, yx; 1 1 62 1 1 189 2 190 2 189 1 1 63 1 2 1 191 2 186 2 194 2 186 2 191 1 2 1 63 1 1 189 2 190 2 189, zy
220: 1 1 128 2 256 2 129 1 2 1 129 2 256 2 128 1 1 255 2 132 2 252 2 132 2 255, zy; 2 130 2 254 2 130 2 256, yx; 1 1 62 1 1 191 2 194 2 191 1 1 63 1 2 1 195 2 188 2 198 2 188 2 195 1 2 1 63 1 1 191 2 194 2 191, zy
221: 1 1 130 2 260 2 131 1 2 1 131 2 260 2 130 1 1 259 2 134 2 256 2 134 2 259, zy; 2 132 2 258 2 132 2 260, yx; 1 1 64 1 1 195 2 196 2 195 1 1 65 1 2 1 197 2 192 2 200 2 192 2 197 1 2 1 65 1 1 195 2 196 2 195, zy
222: 1 1 130 2 260 2 131 1 2 1 131 2 260 2 130 1 1 259 2 134 2 256 2 134 2 259, zy; 2 132 2 258 2 132 2 260, yx; 1 1 66 1 1 197 2 194 2 197 1 1 66 1 1 197 2 194 2 197 1 1 66 1 1 197 2 194 2 197 1 1 66 1 1 197 2 194 2 197 1 1 66 1 1 197 2 194 2 197 1 1 67 1 2 1 194 1 2 1 68 1 2 1 195 2 194 2 198 2 194 2 196 2 194 2 198 2 194 2 196 2 194 2 198 2 194 2 195 1 2 1 68 1 2 1 194 1 2 1 67 1 1 197 2 194 2 197, zy
223: 1 1 130 2 260 2 131 1 2 1 131 2 260 2 130 1 1 259 2 134 2 256 2 134 2 259, zy; 2 132 2 258 2 132 2 260, yx; 1 1 68 1 1 199 2 192 2 199 1 1 68 1 1 199 2 192 2 199 1 1 68 1 1 199 2 192 2 199 1 1 68 1 1 199 2 192 2 199 1 1 68 1 1 199 2 192 2 199 1 1 69 1 2 1 192 1 2 1 70 1 2 1 193 2 196 2 196 2 196 2 194 2 196 2 196 2 196 2 194 2 196 2 196 2 196 2 193 1 2 1 70 1 2 1 192 1 2 1 69 1 1 199 2 192 2 199, zy
224: 1 1 130 2 260 2 131 1 2 1 131 2 260 2 130 1 1 259 2 134 2 256 2 134 2 259, zy; 2 132 2 258 2 132 2 260, yx; 1 1 70 1 1 201 2 190 2 201 1 1 70 1 1 201 2 190 2 201 1 1 70 1 1 201 2 190 2 201 1 1 70 1 1 201 2 190 2 201 1 1 70 1 1 201 2 190 2 201 1 1 71 1 2 1 190 1 2 1 72 1 2 1 191 2 198 2 194 2 198 2 192 2 198 2 194 2 198 2 192 2 198 2 194 2 198 2 191 1 2 1 72 1 2 1 190 1 2 1 71 1 1 201 2 190 2 201, zy
225: 1 1 130 2 260 2 131 1 2 1 131 2 260 2 130 1 1 259 2 134 2 256 2 134 2 259, zy; 2 132 2 258 2 132 2 260, yx; 1 1 72 1 1 203 2 188 2 203 1 1 72 1 1 203 2 188 2 203 1 1 72 1 1 203 2 188 2 203 1 1 72 1 1 203 2 188 2 203 1 1 72 1 1 203 2 188 2 203 1 1 73 1 2 1 188 1 2 1 74 1 2 1 189 2 200 2 192 2 200 2 190 2 200 2 192 2 200 2 190 2 200 2 192 2 200 2 189 1 2 1 74 1 2 1 188 1 2 1 73 1 1 203 2 188 2 203, zy
226: 1 1 132 2 264 2 133 1 2 1 133 2 264 2 132 1 1 263 2 136 2 260 2 136 2 263, zy; 2 134 2 262 2 134 2 264, yx; 1 1 64 1 1 197 2 200 2 197 1 1 65 1 2 1 201 2 194 2 204 2 194 2 201 1 2 1 65 1 1 197 2 200 2 197, zy
227: 1 1 134 2 268 2 135 1 2 1 135 2 268 2 134 1 1 267 2 138 2 264 2 138 2 267, zy; 2 136 2 266 2 136 2 268, yx; 1 1 66 1 1 201 2 202 2 201 1 1 67 1 2 1 203 2 198 2 206 2 198 2 203 1 2 1 67 1 1 201 2 202 2 201, zy
228: 1 1 134 2 268 2 135 1 2 1 135 2 268 2 134 1 1 267 2 138 2 264 2 138 2 267, zy; 2 136 2 266 2 136 2 268, yx; 1 1 68 1 1 203 2 200 2 203 1 1 68 1 1 203 2 200 2 203 1 1 68 1 1 203 2 200 2 203 1 1 68 1 1 203 2 200 2 203 1 1 68 1 1 203 2 200 2 203 1 1 69 1 2 1 200 1 2 1 70 1 2 1 201 2 200 2 204 2 200 2 202 2 200 2 204 2 200 2 202 2 200 2 204 2 200 2 201 1 2 1 70 1 2 1 200 1 2 1 69 1 1 203 2 200 2 203, zy
229: 1 1 134 2 268 2 135 1 2 1 135 2 268 2 134 1 1 267 2 138 2 264 2 138 2 267, zy; 2 136 2 266 2 136 2 268, yx; 1 1 70 1 1 205 2 198 2 205 1 1 70 1 1 205 2 198 2 205 1 1 70 1 1 205 2 198 2 205 1 1 70 1 1 205 2 198 2 205 1 1 70 1 1 205 2 198 2 205 1 1 71 1 2 1 198 1 2 1 72 1 2 1 199 2 202 2 202 2 202 2 200 2 202 2 202 2 202 2 200 2 202 2 202 2 202 2 199 1 2 1 72 1 2 1 198 1 2 1 71 1 1 205 2 198 2 205, zy
230: 1 1 134 2 268 2 135 1 2 1 135 2 268 2 134 1 1 267 2 138 2 264 2 138 2 267, zy; 2 136 2 266 2 136 2 268, yx; 1 1 72 1 1 207 2 196 2 207 1 1 72 1 1 207 2 196 2 207 1 1 72 1 1 207 2 196 2 207 1 1 72 1 1 207 2 196 2 207 1 1 72 1 1 207 2 196 2 207 1 1 73 1 2 1 196 1 2 1 74 1 2 1 197 2 204 2 200 2 204 2 198 2 204 2 200 2 204 2 198 2 204 2 200 2 204 2 197 1 2 1 74 1 2 1 196 1 2 1 73 1 1 207 2 196 2 207, zy
231: 1 1 134 2 268 2 135 1 2 1 135 2 268 2 134 1 1 267 2 138 2 264 2 138 2 267, zy; 2 136 2 266 2 136 2 268, yx; 1 1 74 1 1 209 2 194 2 209 1 1 74 1 1 209 2 194 2 209 1 1 74 1 1 209 2 194 2 209 1 1 74 1 1 209 2 194 2 209 1 1 74 1 1 209 2 194 2 209 1 1 75 1 2 1 194 1 2 1 76 1 2 1 195 2 206 2 198 2 206 2 196 2 206 2 198 2 206 2 196 2 206 2 198 2 206 2 195 1 2 1 76 1 2 1 194 1 2 1 75 1 1 209 2 194 2 209, zy
232: 1 1 134 2 268 2 135 1 2 1 135 2 268 2 134 1 1 267 2 138 2 264 2 138 2 267, zy; 2 136 2 266 2 136 2 268, yx; 1 1 78 1 1 213 2 190 2 213 1 1 78 1 1 213 2 190 2 213 1 1 78 1 1 213 2 190 2 213 1 1 78 1 1 213 2 190 2 213 1 1 78 1 1 213 2 190 2 213 1 1 78 1 1 213 2 190 2 213 1 1 78 1 1 213 2 190 2 213 1 1 78 1 1 213 2 190 2 213 1 1 78 1 1 213 2 190 2 213 1 1 79 1 2 1 190 1 2 1 80 1 2 1 190 1 2 1 80 1 2 1 191 2 210 2 194 2 210 2 192 2 210 2 194 2 210 2 192 2 210 2 194 2 210 2 192 2 210 2 194 2 210 2 192 2 210 2 194 2 210 2 191 1 2 1 80 1 2 1 190 1 2 1 80 1 2 1 190 1 2 1 79 1 1 213 2 190 2 213, zy
233: 1 1 136 2 272 2 137 1 2 1 137 2 272 2 136 1 1 271 2 140 2 268 2 140 2 271, zy; 2 138 2 270 2 138 2 272, yx; 1 1 66 1 1 203 2 206 2 203 1 1 67 1 2 1 207 2 200 2 210 2 200 2 207 1 2 1 67 1 1 203 2 206 2 203, zy
234: 1 1 138 2 276 2 139 1 2 1 139 2 276 2 138 1 1 275 2 142 2 272 2 142 2 275, zy; 2 140 2 274 2 140 2 276, yx; 1 1 68 1 1 207 2 208 2 207 1 1 69 1 2 1 209 2 204 2 212 2 204 2 209 1 2 1 69 1 1 207 2 208 2 207, zy
235: 1 1 140 2 280 2 141 1 2 1 141 2 280 2 140 1 1 279 2 144 2 276 2 144 2 279, zy; 2 142 2 278 2 142 2 280, yx; 1 1 68 1 1 209 2 212 2 209 1 1 69 1 2 1 213 2 206 2 216 2 206 2 213 1 2 1 69 1 1 209 2 212 2 209, zy
236: 1 1 142 2 284 2 143 1 2 1 143 2 284 2 142 1 1 283 2 146 2 280 2 146 2 283, zy; 2 144 2 282 2 144 2 284, yx; 1 1 70 1 1 213 2 214 2 213 1 1 71 1 2 1 215 2 210 2 218 2 210 2 215 1 2 1 71 1 1 213 2 214 2 213, zy
237: 1 1 144 2 288 2 145 1 2 1 145 2 288 2 144 1 1 287 2 148 2 284 2 148 2 287, zy; 2 146 2 286 2 146 2 288, yx; 1 1 70 1 1 215 2 218 2 215 1 1 71 1 2 1 219 2 212 2 222 2 212 2 219 1 2 1 71 1 1 215 2 218 2 215, zy
238: 1 1 146 2 292 2 147 1 2 1 147 2 292 2 146 1 1 291 2 150 2 288 2 150 2 291, zy; 2 148 2 290 2 148 2 292, yx; 1 1 72 1 1 219 2 220 2 219 1 1 73 1 2 1 221 2 216 2 224 2 216 2 221 1 2 1 73 1 1 219 2 220 2 219, zy
239: 1 1 148 2 296 2 149 1 2 1 149 2 296 2 148 1 1 295 2 152 2 292 2 152 2 295, zy; 2 150 2 294 2 150 2 296, yx; 1 1 72 1 1 221 2 224 2 221 1 1 73 1 2 1 225 2 218 2 228 2 218 2 225 1 2 1 73 1 1 221 2 224 2 221, zy
240: 1 1 150 2 300 2 151 1 2 1 151 2 300 2 150 1 1 299 2 154 2 296 2 154 2 299, zy; 2 152 2 298 2 152 2 300, yx; 1 1 74 1 1 225 2 226 2 225 1 1 75 1 2 1 227 2 222 2 230 2 222 2 227 1 2 1 75 1 1 225 2 226 2 225, zy
241: 1 1 152 2 304 2 153 1 2 1 153 2 304 2 152 1 1 303 2 156 2 300 2 156 2 303, zy; 2 154 2 302 2 154 2 304, yx; 1 1 74 1 1 227 2 230 2 227 1 1 75 1 2 1 231 2 224 2 234 2 224 2 231 1 2 1 75 1 1 227 2 230 2 227, zy
242: 1 1 154 2 308 2 155 1 2 1 155 2 308 2 154 1 1 307 2 158 2 304 2 158 2 307, zy; 2 156 2 306 2 156 2 308, yx; 1 1 76 1 1 231 2 232 2 231 1 1 77 1 2 1 233 2 228 2 236 2 228 2 233 1 2 1 77 1 1 231 2 232 2 231, zy
243: 1 1 156 2 312 2 157 1 2 1 157 2 312 2 156 1 1 311 2 160 2 308 2 160 2 311, zy; 2 158 2 310 2 158 2 312, yx; 1 1 76 1 1 233 2 236 2 233 1 1 77 1 2 1 237 2 230 2 240 2 230 2 237 1 2 1 77 1 1 233 2 236 2 233, zy
244: 1 1 15 1 2 1 45 2 32 2 48 2 32 2 45 1 2 1 15 1 1 45 2 34 2 45 1 1 16 1 1 45 2 34 2 45, zy; 1 2 1 29 2 50 2 29, zy; 1 1 12 1 1 41 2 38 2 41 1 1 13 1 2 1 45 2 32 2 48 2 32 2 45 1 2 1 13 1 1 41 2 38 2 41, zy
245: 1 1 15 1 2 1 31 2 30 2 31 1 2 1 15 1 1 38 1 1 16 1 1 41 2 18 1 1 40 1 1 18 2 41 1 1 16 1 1 38, zy; 1 2 1 23 2 38 2 23, zy; 1 1 14 1 1 37 2 24 2 37 1 1 15 1 2 1 31 2 28 2 34 2 28 2 31 1 2 1 15 1 1 37 2 24 2 37, zy
246: 1 1 17 1 2 1 33 2 34 2 33 1 2 1 17 1 1 42 1 1 18 1 1 45 2 20 1 1 44 1 1 20 2 45 1 1 18 1 1 42, zy; 1 2 1 25 2 42 2 25, zy; 1 1 10 1 1 35 2 32 2 35 1 1 11 1 2 1 39 2 26 2 42 2 26 2 39 1 2 1 11 1 1 35 2 32 2 35, zy
247: 1 1 17 1 2 1 33 2 34 2 33 1 2 1 17 1 1 42 1 1 18 1 1 45 2 20 1 1 44 1 1 20 2 45 1 1 18 1 1 42, zy; 1 2 1 25 2 42 2 25, zy; 1 1 14 1 1 39 2 28 2 39 1 1 15 1 2 1 35 2 30 2 38 2 30 2 35 1 2 1 15 1 1 39 2 28 2 39, zy
248: 1 1 17 1 2 1 37 2 36 2 37 1 2 1 17 1 1 44 1 1 18 1 1 47 2 24 1 1 50 1 1 24 2 47 1 1 18 1 1 44, zy; 1 2 1 27 2 46 2 27, zy; 1 1 14 1 1 41 2 32 2 41 1 1 15 1 2 1 39 2 32 2 42 2 32 2 39 1 2 1 15 1 1 41 2 32 2 41, zy
249: 1 1 23 1 2 1 43 2 48 2 43 1 2 1 23 1 1 56 1 1 24 1 1 59 2 30 1 1 62 1 1 30 2 59 1 1 24 1 1 56, zy; 1 2 1 33 2 58 2 33, zy; 1 1 14 1 1 47 2 44 2 47 1 1 15 1 2 1 51 2 38 2 54 2 38 2 51 1 2 1 15 1 1 47 2 44 2 47, zy
250: 1 1 27 1 2 1 47 2 56 2 47 1 2 1 27 1 1 64 1 1 28 1 1 67 2 34 1 1 70 1 1 34 2 67 1 1 28 1 1 64, zy; 1 2 1 37 2 66 2 37, zy; 1 1 16 1 1 53 2 50 2 53 1 1 17 1 2 1 57 2 44 2 60 2 44 2 57 1 2 1 17 1 1 53 2 50 2 53, zy
251: 1 1 77 1 2 1 93 2 158 2 93 1 2 1 77 1 1 162 1 1 78 1 1 165 2 84 1 1 168 1 1 84 2 165 1 1 78 1 1 162, zy; 1 2 1 85 2 166 2 85, zy; 1 1 40 1 1 125 2 126 2 125 1 1 41 1 2 1 129 2 120 2 132 2 120 2 129 1 2 1 41 1 1 125 2 126 2 125, zy
252: 1 1 77 1 2 1 93 2 158 2 93 1 2 1 77 1 1 162 1 1 78 1 1 165 2 84 1 1 168 1 1 84 2 165 1 1 78 1 1 162, zy; 1 2 1 85 2 166 2 85, zy; 1 1 50 1 1 135 2 116 2 135 1 1 51 1 2 1 119 2 130 2 122 2 130 2 119 1 2 1 51 1 1 135 2 116 2 135, zy
253: 1 1 77 1 2 1 93 2 158 2 93 1 2 1 77 1 1 162 1 1 78 1 1 165 2 84 1 1 168 1 1 84 2 165 1 1 78 1 1 162, zy; 1 2 1 85 2 166 2 85, zy; 1 1 48 1 1 133 2 118 2 133 1 1 48 1 1 133 2 118 2 133 1 1 48 1 1 133 2 118 2 133 1 1 49 1 2 1 121 2 128 2 124 2 128 2 121 1 2 1 50 1 2 1 121 2 128 2 124 2 128 2 121 1 2 1 49 1 1 133 2 118 2 133, zy
254: 1 1 43 1 2 1 51 2 82 2 50 2 84 2 50 2 82 2 51 1 2 1 43 1 1 89 2 46 2 86 2 46 2 89 1 1 44 2 88 2 44 1 1 89 2 46 2 86 2 46 2 89, zy; 1 2 1 47 2 86 2 47, zy; 1 1 28 1 1 73 2 61 1 2 1 33 1 1 80 1 1 32 1 1 78 1 1 32 1 1 80 1 1 33 1 2 1 61 2 73 1 1 28 1 1 76 1 1 29 1 2 1 65 2 68 2 65 1 2 1 29 1 1 76, zy
255: 1 1 32 1 1 71 2 46 2 68 2 46 2 71 1 1 32 1 1 75 2 38 1 1 77 2 40 2 74 2 40 2 77 1 1 38 2 76 2 38 1 1 77 2 40 2 74 2 40 2 77 1 1 38 2 75, zy; 1 2 1 41 2 74 2 41, zy; 1 1 35 1 2 1 46 1 2 1 37 2 77 1 1 36 1 1 77 2 37 1 2 1 46 1 2 1 35 1 1 75 2 41 1 2 1 40 1 2 1 42 1 2 1 40 1 2 1 41 2 75, zy
256: 1 1 40 1 1 99 2 80 2 96 2 80 2 99 1 1 40 1 1 102 1 1 41 1 2 1 81 2 96 2 81 1 2 1 41 1 1 102 1 1 41 1 2 1 81 2 96 2 81 1 2 1 41 1 1 102, zy; 2 60 2 116 2 60 2 118, yx; 1 1 28 1 1 89 2 88 2 89 1 1 29 1 2 1 93 2 82 2 96 2 82 2 93 1 2 1 29 1 1 89 2 88 2 89, zy
257: 1 1 42 1 1 105 2 86 2 102 2 86 2 105 1 1 42 1 1 108 1 1 43 1 2 1 87 2 102 2 87 1 2 1 43 1 1 108 1 1 43 1 2 1 87 2 102 2 87 1 2 1 43 1 1 108, zy; 2 64 2 124 2 64 2 126, yx; 1 1 30 1 1 95 2 94 2 95 1 1 31 1 2 1 99 2 88 2 102 2 88 2 99 1 2 1 31 1 1 95 2 94 2 95, zy
258: 1 1 44 1 1 107 2 84 2 104 2 84 2 107 1 1 44 1 1 110 1 1 45 1 2 1 85 2 104 2 85 1 2 1 45 1 1 110 1 1 45 1 2 1 85 2 104 2 85 1 2 1 45 1 1 110, zy; 2 64 2 124 2 64 2 126, yx; 1 1 30 1 1 95 2 94 2 95 1 1 31 1 2 1 99 2 88 2 102 2 88 2 99 1 2 1 31 1 1 95 2 94 2 95, zy
259: 1 1 44 1 1 117 2 104 2 114 2 104 2 117 1 1 44 1 1 120 1 1 45 1 2 1 105 2 114 2 105 1 2 1 45 1 1 120 1 1 45 1 2 1 105 2 114 2 105 1 2 1 45 1 1 120, zy; 2 74 2 144 2 74 2 146, yx; 1 1 42 1 1 117 2 102 2 117 1 1 42 1 1 117 2 102 2 117 1 1 42 1 1 117 2 102 2 117 1 1 42 1 1 117 2 102 2 117 1 1 42 1 1 117 2 102 2 117 1 1 43 1 2 1 106 1 2 1 44 1 2 1 107 2 110 2 110 2 110 2 108 2 110 2 110 2 110 2 108 2 110 2 110 2 110 2 107 1 2 1 44 1 2 1 106 1 2 1 43 1 1 117 2 102 2 117, zy
260: 1 1 46 1 1 113 2 90 2 110 2 90 2 113 1 1 46 1 1 116 1 1 47 1 2 1 91 2 110 2 91 1 2 1 47 1 1 116 1 1 47 1 2 1 91 2 110 2 91 1 2 1 47 1 1 116, zy; 2 68 2 132 2 68 2 134, yx; 1 1 32 1 1 101 2 100 2 101 1 1 33 1 2 1 105 2 94 2 108 2 94 2 105 1 2 1 33 1 1 101 2 100 2 101, zy
261: 1 1 46 1 1 115 2 94 2 112 2 94 2 115 1 1 46 1 1 118 1 1 47 1 2 1 95 2 112 2 95 1 2 1 47 1 1 118 1 1 47 1 2 1 95 2 112 2 95 1 2 1 47 1 1 118, zy; 2 70 2 136 2 70 2 138, yx; 1 1 44 1 1 115 2 92 2 115 1 1 44 1 1 115 2 92 2 115 1 1 44 1 1 115 2 92 2 115 1 1 44 1 1 115 2 92 2 115 1 1 44 1 1 115 2 92 2 115 1 1 45 1 2 1 96 1 2 1 46 1 2 1 97 2 108 2 100 2 108 2 98 2 108 2 100 2 108 2 98 2 108 2 100 2 108 2 97 1 2 1 46 1 2 1 96 1 2 1 45 1 1 115 2 92 2 115, zy
262: 1 1 48 1 1 105 2 68 2 102 2 68 2 105 1 1 48 1 1 108 1 1 49 1 2 1 69 2 102 2 69 1 2 1 49 1 1 108 1 1 49 1 2 1 69 2 102 2 69 1 2 1 49 1 1 108, zy; 2 58 2 112 2 58 2 114, yx; 1 1 32 1 1 91 2 80 2 91 1 1 32 1 1 91 2 80 2 91 1 1 32 1 1 91 2 80 2 91 1 1 32 1 1 91 2 80 2 91 1 1 32 1 1 91 2 80 2 91 1 1 33 1 2 1 84 1 2 1 34 1 2 1 85 2 84 2 88 2 84 2 86 2 84 2 88 2 84 2 86 2 84 2 88 2 84 2 85 1 2 1 34 1 2 1 84 1 2 1 33 1 1 91 2 80 2 91, zy
263: 1 1 48 1 1 113 2 84 2 110 2 84 2 113 1 1 48 1 1 116 1 1 49 1 2 1 85 2 110 2 85 1 2 1 49 1 1 116 1 1 49 1 2 1 85 2 110 2 85 1 2 1 49 1 1 116, zy; 2 66 2 128 2 66 2 130, yx; 1 1 32 1 1 99 2 96 2 99 1 1 33 1 2 1 101 2 92 2 104 2 92 2 101 1 2 1 33 1 1 99 2 96 2 99, zy
264: 1 1 54 1 1 127 2 94 2 124 2 94 2 127 1 1 54 1 1 130 1 1 55 1 2 1 95 2 124 2 95 1 2 1 55 1 1 130 1 1 55 1 2 1 95 2 124 2 95 1 2 1 55 1 1 130, zy; 2 74 2 144 2 74 2 146, yx; 1 1 36 1 1 111 2 108 2 111 1 1 37 1 2 1 113 2 104 2 116 2 104 2 113 1 2 1 37 1 1 111 2 108 2 111, zy
265: 1 1 56 1 1 115 2 64 2 112 2 64 2 115 1 1 56 1 1 118 1 1 57 1 2 1 65 2 112 2 65 1 2 1 57 1 1 118 1 1 57 1 2 1 65 2 112 2 65 1 2 1 57 1 1 118, zy; 2 60 2 116 2 60 2 118, yx; 1 1 28 1 1 89 2 88 2 89 1 1 29 1 2 1 93 2 82 2 96 2 82 2 93 1 2 1 29 1 1 89 2 88 2 89, zy
266: 1 1 56 1 1 127 2 88 2 124 2 88 2 127 1 1 56 1 1 130 1 1 57 1 2 1 89 2 124 2 89 1 2 1 57 1 1 130 1 1 57 1 2 1 89 2 124 2 89 1 2 1 57 1 1 130, zy; 2 72 2 140 2 72 2 142, yx; 1 1 34 1 1 107 2 106 2 107 1 1 35 1 2 1 111 2 100 2 114 2 100 2 111 1 2 1 35 1 1 107 2 106 2 107, zy
267: 1 1 56 1 1 131 2 96 2 128 2 96 2 131 1 1 56 1 1 134 1 1 57 1 2 1 97 2 128 2 97 1 2 1 57 1 1 134 1 1 57 1 2 1 97 2 128 2 97 1 2 1 57 1 1 134, zy; 2 76 2 148 2 76 2 150, yx; 1 1 36 1 1 113 2 112 2 113 1 1 37 1 2 1 117 2 106 2 120 2 106 2 117 1 2 1 37 1 1 113 2 112 2 113, zy
268: 1 1 60 1 1 125 2 72 2 122 2 72 2 125 1 1 60 1 1 128 1 1 61 1 2 1 73 2 122 2 73 1 2 1 61 1 1 128 1 1 61 1 2 1 73 2 122 2 73 1 2 1 61 1 1 128, zy; 2 66 2 128 2 66 2 130, yx; 1 1 32 1 1 99 2 96 2 99 1 1 33 1 2 1 101 2 92 2 104 2 92 2 101 1 2 1 33 1 1 99 2 96 2 99, zy
269: 1 1 62 1 1 127 2 70 2 124 2 70 2 127 1 1 62 1 1 130 1 1 63 1 2 1 71 2 124 2 71 1 2 1 63 1 1 130 1 1 63 1 2 1 71 2 124 2 71 1 2 1 63 1 1 130, zy; 2 66 2 128 2 66 2 130, yx; 1 1 32 1 1 99 2 96 2 99 1 1 33 1 2 1 101 2 92 2 104 2 92 2 101 1 2 1 33 1 1 99 2 96 2 99, zy
270: 1 1 62 1 1 127 2 70 2 124 2 70 2 127 1 1 62 1 1 130 1 1 63 1 2 1 71 2 124 2 71 1 2 1 63 1 1 130 1 1 63 1 2 1 71 2 124 2 71 1 2 1 63 1 1 130, zy; 2 66 2 128 2 66 2 130, yx; 1 1 38 1 1 105 2 90 2 105 1 1 38 1 1 105 2 90 2 105 1 1 38 1 1 105 2 90 2 105 1 1 38 1 1 105 2 90 2 105 1 1 38 1 1 105 2 90 2 105 1 1 39 1 2 1 94 1 2 1 40 1 2 1 95 2 98 2 98 2 98 2 96 2 98 2 98 2 98 2 96 2 98 2 98 2 98 2 95 1 2 1 40 1 2 1 94 1 2 1 39 1 1 105 2 90 2 105, zy
271: 1 1 62 1 1 127 2 70 2 124 2 70 2 127 1 1 62 1 1 130 1 1 63 1 2 1 71 2 124 2 71 1 2 1 63 1 1 130 1 1 63 1 2 1 71 2 124 2 71 1 2 1 63 1 1 130, zy; 2 66 2 128 2 66 2 130, yx; 1 1 40 1 1 107 2 88 2 107 1 1 40 1 1 107 2 88 2 107 1 1 40 1 1 107 2 88 2 107 1 1 40 1 1 107 2 88 2 107 1 1 40 1 1 107 2 88 2 107 1 1 41 1 2 1 92 1 2 1 42 1 2 1 93 2 100 2 96 2 100 2 94 2 100 2 96 2 100 2 94 2 100 2 96 2 100 2 93 1 2 1 42 1 2 1 92 1 2 1 41 1 1 107 2 88 2 107, zy
272: 1 1 64 1 1 133 2 76 2 130 2 76 2 133 1 1 64 1 1 136 1 1 65 1 2 1 77 2 130 2 77 1 2 1 65 1 1 136 1 1 65 1 2 1 77 2 130 2 77 1 2 1 65 1 1 136, zy; 2 80 2 126 2 80 2 128, yx; 1 1 34 1 1 105 2 102 2 105 1 1 35 1 2 1 107 2 98 2 110 2 98 2 107 1 2 1 35 1 1 105 2 102 2 105, zy
273: 1 1 66 1 1 135 2 74 2 132 2 74 2 135 1 1 66 1 1 138 1 1 67 1 2 1 75 2 132 2 75 1 2 1 67 1 1 138 1 1 67 1 2 1 75 2 132 2 75 1 2 1 67 1 1 138, zy; 2 70 2 136 2 70 2 138, yx; 1 1 34 1 1 105 2 102 2 105 1 1 35 1 2 1 107 2 98 2 110 2 98 2 107 1 2 1 35 1 1 105 2 102 2 105, zy
274: 1 1 70 1 1 143 2 78 2 140 2 78 2 143 1 1 70 1 1 146 1 1 71 1 2 1 79 2 140 2 79 1 2 1 71 1 1 146 1 1 71 1 2 1 79 2 140 2 79 1 2 1 71 1 1 146, zy; 2 74 2 144 2 74 2 146, yx; 1 1 36 1 1 111 2 108 2 111 1 1 37 1 2 1 113 2 104 2 116 2 104 2 113 1 2 1 37 1 1 111 2 108 2 111, zy
275: 1 1 70 1 1 143 2 78 2 140 2 78 2 143 1 1 70 1 1 146 1 1 71 1 2 1 79 2 140 2 79 1 2 1 71 1 1 146 1 1 71 1 2 1 79 2 140 2 79 1 2 1 71 1 1 146, zy; 2 74 2 144 2 74 2 146, yx; 1 1 44 1 1 119 2 100 2 119 1 1 44 1 1 119 2 100 2 119 1 1 44 1 1 119 2 100 2 119 1 1 44 1 1 119 2 100 2 119 1 1 44 1 1 119 2 100 2 119 1 1 45 1 2 1 104 1 2 1 46 1 2 1 105 2 112 2 108 2 112 2 106 2 112 2 108 2 112 2 106 2 112 2 108 2 112 2 105 1 2 1 46 1 2 1 104 1 2 1 45 1 1 119 2 100 2 119, zy
276: 1 1 70 1 1 145 2 82 2 142 2 82 2 145 1 1 70 1 1 148 1 1 71 1 2 1 83 2 142 2 83 1 2 1 71 1 1 148 1 1 71 1 2 1 83 2 142 2 83 1 2 1 71 1 1 148, zy; 2 76 2 148 2 76 2 150, yx; 1 1 36 1 1 113 2 112 2 113 1 1 37 1 2 1 117 2 106 2 120 2 106 2 117 1 2 1 37 1 1 113 2 112 2 113, zy
277: 1 1 33 1 2 1 45 2 64 2 44 2 66 2 44 2 64 2 44 2 66 2 44 2 64 2 45 1 2 1 33 1 1 71 2 40 2 68 2 40 2 70 2 39 1 2 1 39 2 70 2 40 2 68 2 40 2 71, zy; 1 2 1 39 2 70 2 39, zy; 1 1 34 2 74 2 34 1 1 71 2 40 2 68 2 40 2 71 1 1 34 2 74 2 35 1 2 1 43 2 66 2 43 1 2 1 35 2 74 2 34 1 1 71 2 40 2 68 2 40 2 71, zy
278: 1 1 94 1 1 193 2 108 2 190 2 108 2 192 2 108 2 190 2 108 2 193 1 1 94 1 1 197 2 100 1 1 199 2 102 2 196 2 102 2 198 2 101 1 2 1 101 2 198 2 102 2 196 2 102 2 199 1 1 100 2 197, zy; 1 2 1 101 2 198 2 101, zy; 1 1 100 2 198 2 101 1 2 1 101 2 198 2 100 1 1 199 2 102 2 196 2 102 2 199, zy
279: 1 1 100 1 1 205 2 114 2 202 2 114 2 204 2 114 2 202 2 114 2 205 1 1 100 1 1 209 2 106 1 1 211 2 108 2 208 2 108 2 210 2 107 1 2 1 107 2 210 2 108 2 208 2 108 2 211 1 1 106 2 209, zy; 1 2 1 107 2 210 2 107, zy; 1 1 106 2 210 2 107 1 2 1 107 2 210 2 106 1 1 211 2 108 2 208 2 108 2 211, zy
280: 1 1 104 1 1 213 2 118 2 210 2 118 2 212 2 118 2 210 2 118 2 213 1 1 104 1 1 217 2 110 1 1 219 2 112 2 216 2 112 2 218 2 111 1 2 1 111 2 218 2 112 2 216 2 112 2 219 1 1 110 2 217, zy; 1 2 1 111 2 218 2 111, zy; 1 1 110 2 218 2 111 1 2 1 111 2 218 2 110 1 1 219 2 112 2 216 2 112 2 219, zy
281: 1 1 106 1 1 217 2 120 2 214 2 120 2 216 2 120 2 214 2 120 2 217 1 1 106 1 1 221 2 112 1 1 223 2 114 2 220 2 114 2 222 2 113 1 2 1 113 2 222 2 114 2 220 2 114 2 223 1 1 112 2 221, zy; 1 2 1 113 2 222 2 113, zy; 1 1 112 2 222 2 113 1 2 1 113 2 222 2 112 1 1 223 2 114 2 220 2 114 2 223, zy
282: 1 1 6 1 1 24 1 1 6 1 1 27 2 20 2 31 1 1 14 2 33 1 1 12 1 1 30 1 1 12 1 1 33 2 14 1 1 32 1 1 14 2 33 1 1 12 1 1 30 1 1 12 1 1 33 2 14 1 1 31 2 20 2 27, zy; 1 2 1 19 2 30 2 19, zy; 1 1 8 1 1 26 1 1 8 1 1 29 2 19 1 2 1 19 2 31 1 1 13 1 2 1 25 2 24 2 24 2 25 1 2 1 13 1 1 31 2 18 2 32 2 16 2 32 2 18 2 31 1 1 13 1 2 1 25 2 24 2 24 2 25 1 2 1 13 1 1 31 2 19 1 2 1 19 2 29 1 1 8 1 1 26 1 1 8 1 1 29 2 19 1 2 1 19 2 31 1 1 13 1 2 1 25 2 24 2 24 2 25 1 2 1 14 1 2 1 24 1 2 1 14 1 2 1 25 2 24 2 24 2 25 1 2 1 13 1 1 31 2 19 1 2 1 19 2 29 1 1 8 1 1 26 1 1 8 1 1 29 2 19 1 2 1 19 2 31 1 1 13 1 2 1 25 2 24 2 24 2 25 1 2 1 14 1 2 1 24 1 2 1 14 1 2 1 25 2 24 2 24 2 25 1 2 1 13 1 1 31 2 19 1 2 1 19 2 29, zy
283: 1 1 10 1 1 32 1 1 10 1 1 35 2 24 2 39 1 1 18 2 41 1 1 16 1 1 38 1 1 16 1 1 41 2 18 1 1 40 1 1 18 2 41 1 1 16 1 1 38 1 1 16 1 1 41 2 18 1 1 39 2 24 2 35, zy; 1 2 1 23 2 38 2 23, zy; 1 1 14 1 1 37 2 24 2 37 1 1 15 1 2 1 31 2 28 2 34 2 28 2 31 1 2 1 15 1 1 37 2 24 2 37, zy
284: 1 1 14 1 1 38 1 1 14 1 1 41 2 24 2 45 1 1 22 2 43 1 1 16 1 1 40 1 1 16 1 1 43 2 22 1 1 46 1 1 22 2 43 1 1 16 1 1 40 1 1 16 1 1 43 2 22 1 1 45 2 24 2 41, zy; 1 2 1 25 2 42 2 25, zy; 1 1 14 1 1 39 2 28 2 39 1 1 14 1 1 39 2 28 2 39 1 1 14 1 1 39 2 28 2 39 1 1 15 1 2 1 35 2 30 2 38 2 30 2 35 1 2 1 16 1 2 1 35 2 30 2 38 2 30 2 35 1 2 1 15 1 1 39 2 28 2 39, zy
285: 1 1 16 1 1 42 1 1 16 1 1 45 2 26 2 49 1 1 24 2 47 1 1 18 1 1 44 1 1 18 1 1 47 2 24 1 1 50 1 1 24 2 47 1 1 18 1 1 44 1 1 18 1 1 47 2 24 1 1 49 2 26 2 45, zy; 1 2 1 27 2 46 2 27, zy; 1 1 16 1 1 43 2 30 2 43 1 1 17 1 2 1 37 2 34 2 40 2 34 2 37 1 2 1 17 1 1 43 2 30 2 43, zy
286: 1 1 16 1 1 51 2 53 1 2 1 21 1 1 58 1 1 20 1 1 56 1 1 18 1 1 54 1 1 18 1 1 56 1 1 20 1 1 58 1 1 21 1 2 1 53 2 51 1 1 16 1 1 54 1 2 1 21 1 1 59 2 44 2 59 1 1 21 1 2 1 54, zy; 1 2 1 37 2 66 2 37, zy; 1 1 34 2 68 2 34 1 1 69 2 36 2 66 2 36 2 69 1 1 34 2 68 2 35 1 2 1 39 2 64 2 39 1 2 1 35 2 68 2 34 1 1 69 2 36 2 66 2 36 2 69, zy
287: 1 1 18 1 1 53 2 51 1 2 1 23 1 1 60 1 1 22 1 1 58 1 1 20 1 1 56 1 1 20 1 1 58 1 1 22 1 1 60 1 1 23 1 2 1 51 2 53 1 1 18 1 1 56 1 2 1 19 1 1 57 2 46 2 57 1 1 19 1 2 1 56, zy; 1 2 1 37 2 66 2 37, zy; 1 1 34 2 68 2 34 1 1 69 2 36 2 66 2 36 2 69 1 1 34 2 68 2 35 1 2 1 39 2 64 2 39 1 2 1 35 2 68 2 34 1 1 69 2 36 2 66 2 36 2 69, zy
288: 1 1 20 1 1 61 2 61 1 2 1 25 1 1 68 1 1 24 1 1 66 1 1 22 1 1 64 1 1 22 1 1 66 1 1 24 1 1 68 1 1 25 1 2 1 61 2 61 1 1 20 1 1 64 1 2 1 23 1 1 67 2 54 2 67 1 1 23 1 2 1 64, zy; 1 2 1 43 2 78 2 43, zy; 1 1 40 2 80 2 40 1 1 81 2 42 2 78 2 42 2 81 1 1 40 2 80 2 41 1 2 1 45 2 76 2 45 1 2 1 41 2 80 2 40 1 1 81 2 42 2 78 2 42 2 81, zy
289: 1 1 31 1 2 1 39 2 58 2 39 1 2 1 31 1 1 66 1 1 31 1 2 1 39 2 58 2 39 1 2 1 31 1 1 66 1 1 32 2 64 2 32 1 1 65 2 34 2 62 2 34 2 64 2 34 2 62 2 34 2 65 1 1 32 2 64 2 32 1 1 66, zy; 1 2 1 35 2 62 2 35, zy; 1 1 30 2 66 2 30 1 1 63 2 36 2 60 2 36 2 63 1 1 30 2 66 2 31 1 2 1 39 2 58 2 39 1 2 1 31 2 66 2 30 1 1 63 2 36 2 60 2 36 2 63, zy
290: 1 1 33 1 2 1 41 2 62 2 41 1 2 1 33 1 1 70 1 1 33 1 2 1 41 2 62 2 41 1 2 1 33 1 1 70 1 1 34 2 68 2 34 1 1 69 2 36 2 66 2 36 2 68 2 36 2 66 2 36 2 69 1 1 34 2 68 2 34 1 1 70, zy; 1 2 1 37 2 66 2 37, zy; 1 1 34 2 68 2 34 1 1 69 2 36 2 66 2 36 2 69 1 1 34 2 68 2 35 1 2 1 39 2 64 2 39 1 2 1 35 2 68 2 34 1 1 69 2 36 2 66 2 36 2 69, zy
291: 1 1 96 1 1 195 2 106 2 192 2 106 2 194 2 106 2 192 2 106 2 195 1 1 96 1 1 199 2 98 1 1 197 2 104 2 194 2 104 2 196 2 103 1 2 1 99 1 1 200 1 1 99 1 2 1 103 2 196 2 104 2 194 2 104 2 197 1 1 98 2 199, zy; 1 2 1 101 2 198 2 101, zy; 1 1 100 2 198 2 101 1 2 1 101 2 198 2 100 1 1 199 2 102 2 196 2 102 2 199, zy
292: 1 1 101 1 2 1 105 2 200 2 105 1 2 1 101 1 1 204 1 1 101 1 2 1 105 2 200 2 105 1 2 1 101 1 1 204 1 1 102 2 202 2 102 1 1 203 2 104 2 200 2 104 2 202 2 104 2 200 2 104 2 203 1 1 102 2 202 2 102 1 1 204, zy; 1 2 1 103 2 202 2 103, zy; 1 1 102 2 202 2 103 1 2 1 103 2 202 2 102 1 1 203 2 104 2 200 2 104 2 203, zy
293: 1 1 102 1 1 207 2 112 2 204 2 112 2 206 2 112 2 204 2 112 2 207 1 1 102 1 1 211 2 104 1 1 209 2 110 2 206 2 110 2 208 2 109 1 2 1 105 1 1 212 1 1 105 1 2 1 109 2 208 2 110 2 206 2 110 2 209 1 1 104 2 211, zy; 1 2 1 107 2 210 2 107, zy; 1 1 106 2 210 2 107 1 2 1 107 2 210 2 106 1 1 211 2 108 2 208 2 108 2 211, zy
294: 1 1 106 1 1 215 2 116 2 212 2 116 2 214 2 116 2 212 2 116 2 215 1 1 106 1 1 219 2 108 1 1 217 2 114 2 214 2 114 2 216 2 113 1 2 1 109 1 1 220 1 1 109 1 2 1 113 2 216 2 114 2 214 2 114 2 217 1 1 108 2 219, zy; 1 2 1 111 2 218 2 111, zy; 1 1 110 2 218 2 111 1 2 1 111 2 218 2 110 1 1 219 2 112 2 216 2 112 2 219, zy
295: 1 1 108 1 1 219 2 118 2 216 2 118 2 218 2 118 2 216 2 118 2 219 1 1 108 1 1 223 2 110 1 1 221 2 116 2 218 2 116 2 220 2 115 1 2 1 111 1 1 224 1 1 111 1 2 1 115 2 220 2 116 2 218 2 116 2 221 1 1 110 2 223, zy; 1 2 1 113 2 222 2 113, zy; 1 1 112 2 222 2 113 1 2 1 113 2 222 2 112 1 1 223 2 114 2 220 2 114 2 223, zy
296: 1 1 109 1 2 1 117 2 218 2 117 1 2 1 109 1 1 222 1 1 109 1 2 1 117 2 218 2 117 1 2 1 109 1 1 222 1 1 110 2 224 2 110 1 1 221 2 116 2 218 2 116 2 220 2 116 2 218 2 116 2 221 1 1 110 2 224 2 110 1 1 222, zy; 1 2 1 113 2 222 2 113, zy; 1 1 112 2 222 2 113 1 2 1 113 2 222 2 112 1 1 223 2 114 2 220 2 114 2 223, zy
297: 1 1 21 1 2 1 53 2 50 2 53 1 2 1 21 1 1 58 1 1 22 1 1 60 1 1 22 1 1 57 2 47 1 2 1 27 1 1 64 1 1 26 1 1 62 1 1 24 1 1 60 1 1 24 1 1 62 1 1 26 1 1 64 1 1 27 1 2 1 47 2 57 1 1 22 1 1 60 1 1 22 1 1 58, zy; 1 2 1 37 2 66 2 37, zy; 1 1 34 2 68 2 34 1 1 69 2 36 2 66 2 36 2 69 1 1 34 2 68 2 35 1 2 1 39 2 64 2 39 1 2 1 35 2 68 2 34 1 1 69 2 36 2 66 2 36 2 69, zy
298: 1 1 35 1 2 1 43 2 66 2 42 2 68 2 41 1 2 1 37 2 72 2 36 1 1 74 1 1 36 2 72 2 37 1 2 1 41 2 68 2 42 2 66 2 43 1 2 1 35 1 1 73 2 38 2 70 2 38 2 72 2 37 1 2 1 41 2 68 2 41 1 2 1 37 2 72 2 38 2 70 2 38 2 73, zy; 1 2 1 39 2 70 2 39, zy; 1 1 34 2 74 2 34 1 1 71 2 40 2 68 2 40 2 71 1 1 34 2 74 2 35 1 2 1 43 2 66 2 43 1 2 1 35 2 74 2 34 1 1 71 2 40 2 68 2 40 2 71, zy
299: 1 1 58 1 1 170 1 1 58 1 1 172 1 1 60 1 1 174 1 1 61 1 2 1 165 2 171 1 1 60 1 1 174 1 1 60 1 1 172 1 1 59 1 2 1 167 2 168 2 167 1 2 1 59 1 1 172 1 1 60 1 1 174 1 1 60 1 1 171 2 165 1 2 1 61 1 1 174 1 1 60 1 1 172, zy; 1 2 1 113 2 222 2 113, zy; 1 1 112 2 222 2 113 1 2 1 113 2 222 2 112 1 1 223 2 114 2 220 2 114 2 223, zy
300: 1 1 2 1 1 39 2 71 1 1 32 1 1 71 2 38 2 71 1 1 33 1 2 1 44 1 2 1 33 1 1 71 2 38 2 71 1 1 32 1 1 71 2 39 1 1 2 1 1 42 1 2 1 35 1 1 73 2 36 2 73 1 1 34 1 1 73 2 37 1 2 1 40 1 2 1 37 2 73 1 1 34 1 1 73 2 36 2 73 1 1 35 1 2 1 42, zy; 1 2 1 39 2 70 2 39, zy; 1 1 20 1 1 57 2 53 1 2 1 25 1 1 64 1 1 24 1 1 62 1 1 24 1 1 64 1 1 25 1 2 1 53 2 57 1 1 20 1 1 60 1 1 21 1 2 1 57 2 52 2 57 1 2 1 21 1 1 60, zy
301: 1 1 4 1 1 38 1 2 1 32 1 2 1 38 1 2 1 32 1 2 1 38 1 1 4 1 1 39 2 59 1 1 25 1 2 1 45 2 51 1 1 16 1 1 51 2 47 1 1 14 1 1 50 1 2 1 21 1 1 57 2 40 2 57 1 1 21 1 2 1 50 1 1 14 1 1 47 2 51 1 1 16 1 1 51 2 45 1 2 1 25 1 1 59 2 39, zy; 1 2 1 35 2 62 2 35, zy; 1 1 24 1 1 57 2 41 1 2 1 29 1 1 64 1 1 28 1 1 62 1 1 28 1 1 64 1 1 29 1 2 1 41 2 57 1 1 24 1 1 60 1 1 25 1 2 1 45 2 52 2 45 1 2 1 25 1 1 60, zy
302: 1 1 4 1 1 43 2 73 1 1 32 1 1 73 2 42 2 73 1 1 33 1 2 1 48 1 2 1 33 1 1 73 2 42 2 73 1 1 32 1 1 73 2 43 1 1 4 1 1 46 1 2 1 35 1 1 75 2 40 2 75 1 1 34 1 1 75 2 41 1 2 1 40 1 2 1 41 2 75 1 1 34 1 1 75 2 40 2 75 1 1 35 1 2 1 46, zy; 1 2 1 41 2 74 2 41, zy; 1 1 22 1 1 61 2 55 1 2 1 27 1 1 68 1 1 26 1 1 66 1 1 26 1 1 68 1 1 27 1 2 1 55 2 61 1 1 22 1 1 64 1 1 23 1 2 1 59 2 56 2 59 1 2 1 23 1 1 64, zy
303: 1 1 6 1 1 49 2 79 1 1 34 1 1 79 2 48 2 79 1 1 35 1 2 1 54 1 2 1 35 1 1 79 2 48 2 79 1 1 34 1 1 79 2 49 1 1 6 1 1 52 1 2 1 37 1 1 81 2 46 2 81 1 1 36 1 1 81 2 47 1 2 1 42 1 2 1 47 2 81 1 1 36 1 1 81 2 46 2 81 1 1 37 1 2 1 52, zy; 1 2 1 45 2 82 2 45, zy; 1 1 26 1 1 69 2 59 1 2 1 31 1 1 76 1 1 30 1 1 74 1 1 30 1 1 76 1 1 31 1 2 1 59 2 69 1 1 26 1 1 72 1 1 27 1 2 1 63 2 64 2 63 1 2 1 27 1 1 72, zy
304: 1 1 6 1 1 51 2 83 1 1 36 1 1 83 2 50 2 83 1 1 37 1 2 1 56 1 2 1 37 1 1 83 2 50 2 83 1 1 36 1 1 83 2 51 1 1 6 1 1 54 1 2 1 39 1 1 85 2 48 2 85 1 1 38 1 1 85 2 49 1 2 1 44 1 2 1 49 2 85 1 1 38 1 1 85 2 48 2 85 1 1 39 1 2 1 54, zy; 1 2 1 47 2 86 2 47, zy; 1 1 26 1 1 71 2 63 1 2 1 31 1 1 78 1 1 30 1 1 76 1 1 30 1 1 78 1 1 31 1 2 1 63 2 71 1 1 26 1 1 74 1 1 27 1 2 1 67 2 66 2 67 1 2 1 27 1 1 74, zy
305: 1 1 4 1 1 44 1 1 4 1 1 45 2 71 1 1 30 1 1 71 2 44 2 71 1 1 31 1 2 1 50 1 1 8 1 1 47 2 69 1 1 28 1 1 69 2 46 2 69 1 1 29 1 2 1 52 1 2 1 29 1 1 69 2 46 2 69 1 1 28 1 1 69 2 47 1 1 8 1 1 50 1 2 1 31 1 1 71 2 44 2 71 1 1 30 1 1 71 2 45, zy; 1 2 1 41 2 74 2 41, zy; 1 1 22 1 1 61 2 55 1 2 1 27 1 1 68 1 1 26 1 1 66 1 1 26 1 1 68 1 1 27 1 2 1 55 2 61 1 1 22 1 1 64 1 1 23 1 2 1 59 2 56 2 59 1 2 1 23 1 1 64, zy
306: 1 1 40 1 1 86 1 1 40 1 1 88 1 1 40 1 1 86 1 1 40 1 1 88 1 1 42 1 1 89 2 44 1 1 90 1 1 42 1 1 88 1 1 42 2 90 2 42 1 1 87 2 48 2 84 2 48 2 87 1 1 42 2 90 2 42 1 1 87 2 48 2 84 2 48 2 87 1 1 42 2 90 2 42 1 1 88 1 1 42 1 1 90 1 1 44 2 89 1 1 42 1 1 88, zy; 1 2 1 47 2 86 2 47, zy; 1 1 26 1 1 71 2 63 1 2 1 31 1 1 78 1 1 30 1 1 76 1 1 30 1 1 78 1 1 31 1 2 1 63 2 71 1 1 26 1 1 74 1 1 27 1 2 1 67 2 66 2 67 1 2 1 27 1 1 74, zy
307: 1 1 2 1 1 103 2 203 1 1 100 1 1 203 2 102 2 203 1 1 101 1 2 1 104 1 2 1 102 1 2 1 104 1 2 1 101 1 1 203 2 102 2 203 1 1 100 1 1 203 2 103 1 1 2 1 1 106 1 2 1 100 1 2 1 106 1 2 1 99 1 1 201 2 104 2 201 1 1 98 1 1 201 2 105 1 2 1 100 1 2 1 106 1 2 1 100 1 2 1 105 2 201 1 1 98 1 1 201 2 104 2 201 1 1 99 1 2 1 106 1 2 1 100 1 2 1 106, zy; 1 2 1 103 2 202 2 103, zy; 1 1 102 2 202 2 103 1 2 1 103 2 202 2 102 1 1 203 2 104 2 200 2 104 2 203, zy
308: 1 1 2 1 1 108 1 2 1 106 1 2 1 108 1 2 1 105 1 1 211 2 106 2 211 1 1 104 1 1 211 2 107 1 2 1 106 1 2 1 108 1 2 1 106 1 2 1 107 2 211 1 1 104 1 1 211 2 106 2 211 1 1 105 1 2 1 108 1 2 1 106 1 2 1 108 1 1 2 1 1 109 2 209 1 1 102 1 1 209 2 108 2 209 1 1 103 1 2 1 110 1 2 1 104 1 2 1 110 1 2 1 103 1 1 209 2 108 2 209 1 1 102 1 1 209 2 109, zy; 1 2 1 107 2 210 2 107, zy; 1 1 106 2 210 2 107 1 2 1 107 2 210 2 106 1 1 211 2 108 2 208 2 108 2 211, zy
309: 1 1 2 1 1 111 2 219 1 1 108 1 1 219 2 110 2 219 1 1 109 1 2 1 112 1 2 1 110 1 2 1 112 1 2 1 109 1 1 219 2 110 2 219 1 1 108 1 1 219 2 111 1 1 2 1 1 114 1 2 1 108 1 2 1 114 1 2 1 107 1 1 217 2 112 2 217 1 1 106 1 1 217 2 113 1 2 1 108 1 2 1 114 1 2 1 108 1 2 1 113 2 217 1 1 106 1 1 217 2 112 2 217 1 1 107 1 2 1 114 1 2 1 108 1 2 1 114, zy; 1 2 1 111 2 218 2 111, zy; 1 1 110 2 218 2 111 1 2 1 111 2 218 2 110 1 1 219 2 112 2 216 2 112 2 219, zy
310: 1 1 2 1 1 114 1 2 1 112 1 2 1 114 1 2 1 111 1 1 223 2 112 2 223 1 1 110 1 1 223 2 113 1 2 1 112 1 2 1 114 1 2 1 112 1 2 1 113 2 223 1 1 110 1 1 223 2 112 2 223 1 1 111 1 2 1 114 1 2 1 112 1 2 1 114 1 1 2 1 1 115 2 221 1 1 108 1 1 221 2 114 2 221 1 1 109 1 2 1 116 1 2 1 110 1 2 1 116 1 2 1 109 1 1 221 2 114 2 221 1 1 108 1 1 221 2 115, zy; 1 2 1 113 2 222 2 113, zy; 1 1 112 2 222 2 113 1 2 1 113 2 222 2 112 1 1 223 2 114 2 220 2 114 2 223, zy
311: 1 1 4 1 1 37 2 61 1 1 26 1 1 61 2 36 2 61 1 1 27 1 2 1 42 1 2 1 28 1 2 1 42 1 2 1 27 1 1 61 2 36 2 61 1 1 26 1 1 61 2 37 1 1 4 1 1 40 1 2 1 30 1 2 1 40 1 2 1 29 1 1 63 2 34 2 63 1 1 28 1 1 63 2 35 1 2 1 34 1 2 1 36 1 2 1 34 1 2 1 35 2 63 1 1 28 1 1 63 2 34 2 63 1 1 29 1 2 1 40 1 2 1 30 1 2 1 40, zy; 1 2 1 35 2 62 2 35, zy; 1 1 30 2 66 2 30 1 1 63 2 36 2 60 2 36 2 63 1 1 30 2 66 2 31 1 2 1 39 2 58 2 39 1 2 1 31 2 66 2 30 1 1 63 2 36 2 60 2 36 2 63, zy
312: 1 1 4 1 1 39 2 65 1 1 28 1 1 65 2 38 2 65 1 1 29 1 2 1 44 1 2 1 30 1 2 1 44 1 2 1 29 1 1 65 2 38 2 65 1 1 28 1 1 65 2 39 1 1 4 1 1 42 1 2 1 32 1 2 1 42 1 2 1 31 1 1 67 2 36 2 67 1 1 30 1 1 67 2 37 1 2 1 36 1 2 1 38 1 2 1 36 1 2 1 37 2 67 1 1 30 1 1 67 2 36 2 67 1 1 31 1 2 1 42 1 2 1 32 1 2 1 42, zy; 1 2 1 37 2 66 2 37, zy; 1 1 34 2 68 2 34 1 1 69 2 36 2 66 2 36 2 69 1 1 34 2 68 2 35 1 2 1 39 2 64 2 39 1 2 1 35 2 68 2 34 1 1 69 2 36 2 66 2 36 2 69, zy
313: 1 1 23 1 2 1 41 2 42 2 44 2 42 2 41 1 2 1 22 1 2 1 41 2 42 2 44 2 42 2 41 1 2 1 22 1 2 1 41 2 42 2 44 2 42 2 41 1 2 1 22 1 2 1 41 2 42 2 44 2 42 2 41 1 2 1 23 1 1 55 2 30 2 55 1 1 24 1 1 55 2 30 2 55 1 1 24 1 1 55 2 30 2 55 1 1 24 1 1 55 2 30 2 55 1 1 24 1 1 55 2 30 2 55 1 1 24 1 1 55 2 30 2 55 1 1 24 1 1 55 2 30 2 55 1 1 24 1 1 55 2 30 2 55, zy; 1 2 1 31 2 54 2 31, zy; 1 1 16 1 1 47 2 38 2 47 1 1 16 1 1 47 2 38 2 47 1 1 16 1 1 47 2 38 2 47 1 1 16 1 1 47 2 38 2 47 1 1 16 1 1 47 2 38 2 47 1 1 17 1 2 1 44 1 2 1 18 1 2 1 45 2 38 2 48 2 38 2 46 2 38 2 48 2 38 2 46 2 38 2 48 2 38 2 45 1 2 1 18 1 2 1 44 1 2 1 17 1 1 47 2 38 2 47, zy
